WP,FlatMassQCDEff_0p25,FlatMassQCDEff_0p3,FlatMassQCDEff_0p37,FlatMassQCDEff_0p46,FlatMassQCDEff_0p58,FlatMassQCDEff_0p74,FlatMassQCDEff_0p94,FlatMassQCDEff_1p25,FlatMassQCDEff_1p55
( M()>=299. && M() < 300.) ,4.197701029989399,3.998472284534465,3.7371666245484114,3.481342238316575,3.1881923635071687,2.862128553598489,2.509589697171278,2.0550060525645044,1.7252882518569508
( M()>=298. && M() < 299.) ,4.193697250763157,3.99717653197157,3.737235878696245,3.4838325630049414,3.1904049804897348,2.8623903621790077,2.506894931030614,2.0576837668717975,1.7286750614719386
( M()>=297. && M() < 298.) ,4.190628928362794,3.9964968676533625,3.7377729358427234,3.4864421631858664,3.1927418228923767,2.862824454401861,2.50476204784591,2.0602445245235197,1.7319407006445888
( M()>=296. && M() < 297.) ,4.1884541503214905,3.996397255127472,3.7387684689397127,3.489156734635414,3.1951829215451566,2.8634186936048014,2.503170065424016,2.062686869830431,1.7350762109148459
( M()>=295. && M() < 296.) ,4.187127444359847,3.9968394690542786,3.740209590945821,3.4919619874889185,3.197708810121984,2.8641613611305328,2.5020955109033354,2.0650104929199182,1.7380738717650555
( M()>=294. && M() < 295.) ,4.1866002017020705,3.997783463758976,3.7420799602753827,3.4948437811873716,3.2003007072785215,2.8650412580537425,2.5015127050774484,2.067216241265037,1.7409272668309919
( M()>=293. && M() < 294.) ,4.186821120874656,3.999187755122519,3.7443599315852194,3.4977882598361516,3.2029406930132067,2.8660478006611725,2.501394065157803,2.069306123010347,1.7436313407666169
( M()>=292. && M() < 293.) ,4.18773666807816,4.001009812258172,3.7470267513244537,3.500781986645174,3.205611877495852,2.8671711088403775,2.501710422789764,2.071283301903486,1.7461824461093889
( M()>=291. && M() < 292.) ,4.189291550044031,4.003206455264283,3.7500547967618614,3.5038120760762417,3.208298560633889,2.8684020865443336,2.502431353945525,2.0731520836990036,1.7485783795556236
( M()>=290. && M() < 291.) ,4.191429195156668,4.005734255290018,3.7534158565080236,3.506866322333697,3.210986380718401,2.86973249360073,2.503525517141293,2.07491789396554,1.7508184071403383
( M()>=289. && M() < 290.) ,4.194092238526013,4.008549933037457,3.7570794498353592,3.509933322812989,3.213662450562255,2.871155008190093,2.5049609963177275,2.0765872472940377,1.7529032778941764
( M()>=288. && M() < 289.) ,4.197223006649325,4.0116107518780275,3.7610131814090533,3.5130025951562542,3.216315479649239,2.8726632793978744,2.5067056446244167,2.078167707971411,1.7548352256435977
( M()>=287. && M() < 288.) ,4.200763997286096,4.014874901719553,3.7651831273886494,3.5160646865884355,3.2189358809147635,2.8742519693460595,2.508727425326366,2.079667842249115,1.7566179587165154
( M()>=286. && M() < 287.) ,4.2046583502093595,4.018301869862307,3.769554248223269,3.5191112742526762,3.2215158609269707,2.8759167844824245,2.510994746046839,2.0810971624072296,1.7582566374146649
( M()>=285. && M() < 286.) ,4.20885030457623,4.0218527951956755,3.7740908229189523,3.5221352553324805,3.2240494923598724,2.8776544957299564,2.513476782611153,2.0824660628819527,1.7597578392162712
( M()>=284. && M() < 285.) ,4.213285638779502,4.025490802197721,3.778756899037138,3.5251308258228935,3.226532767836932,2.8794629472685402,2.5161437888615894,2.0837857487927733,1.761129511783683
( M()>=283. && M() < 284.) ,4.217912088812261,4.029181311421746,3.783516752276745,3.5280935469054633,3.2289636343716888,2.881341053859282,2.518967388942972,2.085068157273161,1.762380913950236
( M()>=282. && M() < 283.) ,4.222679741381025,4.032892323361727,3.7883353491548855,3.531020397982088,3.231342007836103,2.8832887866994508,2.5219208487572375,2.086325872062798,1.763522544977662
( M()>=281. && M() < 282.) ,4.227541398245205,4.036594672842584,3.793178806074053,3.53390981555577,3.2336697670680534,2.885307147926359,2.524979323495744,2.0875720319027136,1.7645660624816573
( M()>=280. && M() < 281.) ,4.2324529085584155,4.040262251396511,3.79801483791666,3.5367617172654375,3.2359507274407,2.887398133980301,2.528120078444937,2.088820233308452,1.7655241895249913
( M()>=279. && M() < 280.) ,4.237373466275795,4.043872195373486,3.8028131893219532,3.539577510526923,3.2381905939118387,2.8895646881548966,2.5313226805457356,2.090084428370992,1.7664106114889933
( M()>=278. && M() < 279.) ,4.242265870084916,4.047405037937973,3.807546041867625,3.542360085388944,3.2403968937976972,2.8918106427593266,2.534569158541717,2.091378818274784,1.7672398634332351
( M()>=277. && M() < 278.) ,4.247096743644734,4.050844823409063,3.812188390617097,3.545113791363499,3.2425788897083856,2.894140651423385,2.5378441299064836,2.0927177432737656,1.7680272087481097
( M()>=276. && M() < 277.) ,4.2518367143584985,4.054179182875186,3.8167183838114713,3.5478443981712653,3.244747473311948,2.896560112171884,2.5411348931416193,2.0941155699067466,1.7687885099964864
( M()>=275. && M() < 276.) ,4.2564605493000816,4.057399370345016,3.8211176199384336,3.5505590404980683,3.2469150407825826,2.899075081986102,2.544431484449136,2.0955865762632797,1.7695400929310474
( M()>=274. && M() < 275.) ,4.260947247374114,4.0605002591815,3.8253713969697447,3.553266147035192,3.2490953510106,2.901692183658604,2.5477266982131734,2.0971448361524874,1.7702986047398495
( M()>=273. && M() < 274.) ,4.265280087209884,4.063480298959801,3.8294689091991567,3.5559753542695542,3.2513033678156926,2.904418505816592,2.5510160711619987,2.0988041030320472,1.771080867653203
( M()>=272. && M() < 273.) ,4.269446630763081,4.066341433304257,3.833403387886925,3.55869740562755,3.25355508762901,2.9072614970767674,2.5542978305396735,2.100577694593157,1.7719037290972024
( M()>=271. && M() < 272.) ,4.273438683050296,4.069088979751313,3.837172182726716,3.561444036791353,3.2558673542339,2.910228855336478,2.5575728070434196,2.1024783788751455,1.7727839096289457
( M()>=270. && M() < 271.) ,4.277252208874523,4.071731472996128,3.8407767820578163,3.5642278481277114,3.2582576623505104,2.9133284132745203,2.560844313743654,2.1045182628269368,1.7737378499334104
( M()>=269. && M() < 270.) ,4.280887207871473,4.074280473389881,3.8442227707019985,3.567062165363675,3.2607439519610404,2.9165680211629903,2.5641179926087503,2.106708684175501,1.7747815581828705
( M()>=268. && M() < 269.) ,4.284347549595787,4.076750342873413,3.8475197252770745,3.569960889765208,3.263344395414165,2.919955428138118,2.5674016306842473,2.1090601074980153,1.7759304590789653
( M()>=267. && M() < 268.) ,4.287640770820397,4.079157990906498,3.850681047864473,3.57293833923462,3.266077179421875,2.923498163079135,2.5707049483466444,2.111582025335515,1.7771992459007304
( M()>=266. && M() < 267.) ,4.290777837555137,4.081522593314872,3.853723739901498,3.5760090818470687,3.2689602841772176,2.927203416279888,2.5740393624212246,2.1142828651770667,1.7786017368783311
( M()>=265. && M() < 266.) ,4.293772874700332,4.083865287239061,3.856668119171064,3.5791877634734943,3.272011261839619,2.93107792305683,2.5774177272642382,2.117169903100832,1.780150737180037
( M()>=264. && M() < 265.) ,4.296642866537693,4.086208845680063,3.859537483713003,3.5824889312185717,3.2752470166938856,2.935127850472323,2.580854057210574,2.120249184820783,1.7818579077817425
( M()>=263. && M() < 264.) ,4.299407331576742,4.088577335326475,3.862357727383218,3.585926854485451,3.2786835892847623,2.9393586882755725,2.5843632340106066,2.1235254548238425,1.7837336424306784
( M()>=262. && M() < 263.) ,4.302087975517971,4.090995761571348,3.8651569126238483,3.5895153455288082,3.2823359468182707,2.94377514516877,2.587960703102069,2.1270020942480246,1.7857869538661626
( M()>=261. && M() < 262.) ,4.304708326287475,4.093489704743885,3.8679648067557775,3.5932675814004695,3.286217782073431,2.948381051426957,2.591662162684335,2.130681068067835,1.7880253703840605
( M()>=260. && M() < 261.) ,4.307293355319637,4.096084951702298,3.870812388741733,3.597195929209504,3.2903413230023517,2.953179268865248,2.595483249684746,2.134562882095951,1.7904548437593242
( M()>=259. && M() < 260.) ,4.3098690892995775,4.098807126978543,3.8737313339155257,3.6013117765981306,3.2947171551137795,2.958171609060401,2.5994392267309028,2.1386465502400918,1.7930796694401505
( M()>=258. && M() < 259.) ,4.312462216742319,4.101681327638778,3.876753484569531,3.605625369323513,3.2993540586018204,2.963358760664925,2.603544674253163,2.1429295723631983,1.7959024198408287
( M()>=257. && M() < 258.) ,4.315099693726413,4.104731766043882,3.879910314578115,3.61014565778253,3.304258862068247,2.968740226561043,2.6078131917559535,2.1474079230224556,1.798923891434978
( M()>=256. && M() < 257.) ,4.3178083531570834,4.107981424533145,3.88323239636699,3.6148801542337106,3.309436314495198,2.9743142715187285,2.6122571122064886,2.152076051283919,1.8021430662445062
( M()>=255. && M() < 256.) ,4.3206145217788166,4.111451725937954,3.8867488785477917,3.6198348023936044,3.314888976975008,2.98007788089277,2.6168872332965165,2.15692689169361,1.805557088194416
( M()>=254. && M() < 255.) ,4.323543649119575,4.1151622236813905,3.8904869823799295,3.625013860962307,3.32061713549599,2.9860267308203987,2.6217125691296004,2.1619518864395437,1.8091612546673044
( M()>=253. && M() < 254.) ,4.326619952316832,4.119130314903437,3.8944715249516593,3.630419802501678,3.3266187358446246,2.9921551702455167,2.6267401256170095,2.1671410186085436,1.8129490234611303
( M()>=252. && M() < 253.) ,4.32986608060944,4.123370979886306,3.8987244765491327,3.636053228940168,3.3328893414991216,2.998456214985319,2.631974702551192,2.1724828563680916,1.8169120352193349
( M()>=251. && M() < 252.) ,4.333302803006713,4.127896550639695,3.903264559138291,3.6419128048173026,3.3394221151108487,3.0049215539381566,2.637418724974821,2.1779646078210675,1.8210401512515089
( M()>=250. && M() < 251.) ,4.336948722374889,4.132716511238867,3.9081068922373663,3.647995209176435,3.346207823939746,3.0115415674178085,2.64307210608639,2.18357218617463,1.8253215065345114
( M()>=249. && M() < 250.) ,4.340820018826795,4.137837332103089,3.913262691664233,3.6542951068537257,3.353234869352124,3.018305357463416,2.648932143494796,2.189290284787464,1.8297425775371396
( M()>=248. && M() < 249.) ,4.3449302249867205,4.143262339979387,3.9187390258283235,3.660805139668911,3.3604893402201803,3.025200789872073,2.6549934502026415,2.195102461581114,1.8342882643732759
( M()>=247. && M() < 248.) ,4.349290035280313,4.148991625034641,3.92453863326427,3.6675159378357196,3.3679550898167223,3.0322145475754954,2.661247921229995,2.2009912322030836,1.8389419866570682
( M()>=246. && M() < 247.) ,4.353907151019385,4.155021985929225,3.9306598041481253,3.674416151669348,3.3756138355311798,3.039332194875271,2.6676847363255085,2.2069381712801013,1.8436857923056111
( M()>=245. && M() < 246.) ,4.358786162620086,4.161346913420963,3.9370963274904036,3.681492503463002,3.383445280486965,3.0465382519411164,2.6742903987245326,2.2129240210002776,1.8485004784051788
( M()>=244. && M() < 245.) ,4.363928469849237,4.167956612448728,3.9438375046540903,3.688729859159606,3.3914272558917284,3.0538162788766354,2.6810488094382556,2.2189288062254766,1.8533657231493634
( M()>=243. && M() < 244.) ,4.369332240583092,4.174838062328063,3.9508682287962977,3.6961113192335446,3.3995358827262483,3.0611489685582525,2.6879413760877413,2.224931955259514,1.8582602277451712
( M()>=242. && M() < 243.) ,4.374992408049017,4.181975114133193,3.9581691287828926,3.7036183279816393,3.4077457511558835,3.068518247380026,2.694947154828719,2.2309124253537216,1.8631618670883252
( M()>=241. && M() < 242.) ,4.38090070617509,4.189348624000716,3.965716775134538,3.711230800192324,3.416030115850294,3.075905382937573,2.702043023487501,2.2368488319912267,1.868047847920013
( M()>=240. && M() < 241.) ,4.387045742148004,4.196936620561231,3.973483944592051,3.7189272639814948,3.424361105208387,3.0832910976488495,2.7092038836022727,2.242719580949542,1.8728948731110557
( M()>=239. && M() < 240.) ,4.393413104911154,4.204714504438451,3.9814399390077524,3.7266850183791806,3.432709942335967,3.090655687219457,2.716402888691226,2.248503002120014,1.8776793106452476
( M()>=238. && M() < 239.) ,4.399985507917944,4.212655277249896,3.989550953462109,3.7344803040831525,3.441047175484159,3.097979142841521,2.7236116957166687,2.2541774840483164,1.8823773658370235
( M()>=237. && M() < 238.) ,4.406742964071121,4.220729797297726,3.9977804877738263,3.742288485626461,3.4493429155324717,3.105241275965367,2.7308007364257874,2.2597216081330984,1.8869652552776688
( M()>=236. && M() < 237.) ,4.4136629904397875,4.228907058822991,4.006089794976078,3.7500842430895145,3.457567078033061,3.1124218444734506,2.737939504967261,2.2651142814539544,1.8914193809836821
( M()>=235. && M() < 236.) ,4.420720840000032,4.2371544913625705,4.014438359812758,3.7578417713416647,3.465689627274478,3.119500679070098,2.7449968580093618,2.2703348671710035,1.8957165032225791
( M()>=234. && M() < 235.) ,4.427889757398179,4.245438275637543,4.022784399925558,3.7655349847257864,3.4736808197742945,3.1264578086979715,2.751941323396187,2.2753633114878626,1.899833910488273
( M()>=233. && M() < 234.) ,4.435141255439945,4.25372367210732,4.031085382151788,3.7731377250057268,3.481511444642879,3.133273583836035,2.758741413309873,2.2801802661798822,1.9037495851378132
( M()>=232. && M() < 233.) ,4.442445408847172,4.261975358301128,4.039298546188871,3.780623970381047,3.4891530582707073,3.1399287965169385,2.765365937840898,2.2847672057343376,1.9074423632233979
( M()>=231. && M() < 232.) ,4.449771161632692,4.270157770869746,4.047381427887669,3.787968043308928,3.4965782108523045,3.146404795985377,2.7717843148917662,2.2891065381879887,1.9108920871201058
( M()>=230. && M() < 231.) ,4.457086644327188,4.278235448324773,4.055292374516952,3.795144814936381,3.503760662363894,3.1526835989430078,2.7779668724110365,2.2931817088107147,1.9140797496071076
( M()>=229. && M() < 230.) ,4.464359497230965,4.286173370449615,4.0629910445803326,3.8021299039099907,3.5106755857100502,3.158747993395706,2.7838851390742145,2.296977295830157,1.916987628144693
( M()>=228. && M() < 229.) ,4.471557195832133,4.293937290365802,4.070438885071814,3.808899867460761,3.5172997549137075,3.1645816351991662,2.7895121197059605,2.300479097476068,1.9195994081777514
( M()>=227. && M() < 228.) ,4.478647374543648,4.301494055482188,4.077599579509615,3.8154323826815952,3.5236117163845564,3.170169136463675,2.794822551976279,2.3036742096842415,1.9219002944044314
( M()>=226. && M() < 227.) ,4.485598144988162,4.308811913580445,4.0844394605856085,3.8217064160727383,3.5295919414856574,3.175496145083545,2.7997931411630996,2.3065510938891287,1.9238771090587574
( M()>=225. && M() < 226.) ,4.492378405170848,4.315860800592052,4.090927881892083,3.8277023795301672,3.535222958861657,3.1805494147501814,2.8044027701166554,2.309099634415337,1.9255183763775159
( M()>=224. && M() < 225.) ,4.4989581360172926,4.322612606837795,4.097037543842075,3.8334022711276963,3.540489465168499,3.1853168649052197,2.8086326818945837,2.3113111850704406,1.9268143925610444
( M()>=223. && M() < 224.) ,4.505308681980909,4.329041418784116,4.10274476965366,3.8387897992018085,3.545378413156095,3.189787630212896,2.8124666329477876,2.31317860463271,1.9277572806665269
( M()>=222. && M() < 223.) ,4.51140301260967,4.335123733709036,4.1080297280280345,3.8438504884632563,3.549879076259355,3.19395209922597,2.8158910151439027,2.314696281024553,1.9283410300204344
( M()>=221. && M() < 222.) ,4.5172159622695505,4.340838645017122,4.112876599980041,3.8485717670352124,3.5539830891579283,3.197801942053328,2.8188949453686085,2.3158601440632034,1.92856151988466
( M()>=220. && M() < 221.) ,4.522724445511588,4.3461679963017845,4.117273688108365,3.8529430335805706,3.5576844640295224,3.2013301269359133,2.821470321880377,2.3166676667736947,1.9284165272591292
( M()>=219. && M() < 220.) ,4.527907645860721,4.351096502693419,4.121213467439163,3.8569557038822797,3.5609795824967203,3.204530925775261,2.823611847087141,2.3171178553516922,1.9279057188550683
( M()>=218. && M() < 219.) ,4.532747176214126,4.355611838412494,4.124692577822467,3.860603236498519,3.563867163557736,3.207399908756277,2.8253170168460953,2.3172112279613177,1.92703062742332
( M()>=217. && M() < 218.) ,4.537227209343913,4.359704689882188,4.127711758684744,3.8638811373521107,3.5663482080568567,3.2099339283285646,2.8265860768809468,2.316949782648543,1.9257946127693861
( M()>=216. && M() < 217.) ,4.541334577419156,4.36336877417648,4.130275727755205,3.866786943366413,3.5684259205263262,3.212131092922232,2.827421947330199,2.3163369547442434,1.9242028079353328
( M()>=215. && M() < 216.) ,4.545058839833682,4.36660082304589,4.132393006144846,3.869320185514768,3.570105609497311,3.213990730869945,2.8278301168920885,2.3153775642209222,1.9222620511610378
( M()>=214. && M() < 215.) ,4.548392319022788,4.369400533121659,4.134075692895387,3.871482331868651,3.5713945676006342,3.215513345112365,2.82781850842907,2.314077753552218,1.91998080437716
( M()>=213. && M() < 214.) ,4.551330104362201,4.371770483369724,4.135339192785974,3.873276711493485,3.572301933039609,3.2167005593573905,2.8273973182659953,2.312444916705539,1.91736905910463
( M()>=212. && M() < 213.) ,4.553870024590149,4.373716021230317,4.136201901807908,3.874708420249557,3.5728385341991706,3.2175550564400814,2.8265788317662364,2.310487619968928,1.9144382307471592
( M()>=211. && M() < 212.) ,4.556012589619837,4.375245119241671,4.1366848552718825,3.8757842097680784,3.573016719372221,3.2180805097045404,2.825377218065134,2.308215515387513,1.9112010423791024
( M()>=210. && M() < 211.) ,4.557760902941923,4.376368204356585,4.1368113439917265,3.8765123610773706,3.572850173719765,3.2182815083009615,2.8238083070874542,2.305639247635667,1.9076713992146133
( M()>=209. && M() < 210.) ,4.559120546161913,4.3770979623473965,4.136606504402568,3.876902544518874,3.5723537257515847,3.2181634773368324,2.8218893522038933,2.3027703552125502,1.9038642550330305
( M()>=208. && M() < 209.) ,4.560099437550023,4.377449120157288,4.136096888793464,3.8769656677713393,3.5715431457021185,3.2177325938686203,2.8196387820154145,2.2996211668860633,1.8997954719017542
( M()>=207. && M() < 208.) ,4.560707666764934,4.377438209118356,4.135310022083765,3.8767137139018586,3.5704349382736766,3.2169956997440217,2.817075944872963,2.2962046943505627,1.8954816745938596
( M()>=206. && M() < 207.) ,4.560957308177398,4.377083312302107,4.134273951734389,3.876159571519235,3.5690461322645897,3.215960212337022,2.8142208497945256,2.2925345220843054,1.8909401011397502
( M()>=205. && M() < 206.) ,4.560862215458307,4.376403799332497,4.133016797453699,3.875316859141772,3.5673940696286808,3.214634034208215,2.811093907419779,2.288624695414312,1.8861884509764892
( M()>=204. && M() < 205.) ,4.560437800277339,4.37542005217477,4.13156630734754,3.874199745992758,3.5654961964913303,3.2130254627393287,2.807715674610172,2.284489607805226,1.8812447321720271
( M()>=203. && M() < 204.) ,4.55970079811957,4.374153185473972,4.1299494270631225,3.872822771433473,3.563369858626622,3.211143100746331,2.804106606182613,2.2801438883774443,1.8761271091968141
( M()>=202. && M() < 203.) ,4.5586690243582595,4.3726247649709915,4.128191888278935,3.871200665274142,3.5610321038151405,3.2089957690806434,2.8002868170986424,2.27560229066263,1.8708537527012323
( M()>=201. && M() < 202.) ,4.557361123779898,4.3708565276423865,4.126317822624701,3.869348171161132,3.5584994934016327,3.2065924221613393,2.7962758582510068,2.2708795835702045,1.86544269271649
( M()>=200. && M() < 201.) ,4.5557963168073865,4.368870107008961,4.124349406753953,3.8672798751929176,3.5557879252643683,3.203942067340968,2.7920925087109163,2.2659904455207736,1.8599116766615158
( M()>=199. && M() < 200.) ,4.5539941456568345,4.366686767044667,4.1223065438468485,3.8650100418325226,3.5529124702249972,3.201053688955778,2.7877545870393208,2.2609493626546837,1.8542780334661253
( M()>=198. && M() < 199.) ,4.551974223636909,4.364327147906991,4.120206586308763,3.8625524591010234,3.5498872237773513,3.1979361778322097,2.783278783920612,2.255770531984357,1.8485585450583581
( M()>=197. && M() < 198.) ,4.549755990684635,4.361811026585991,4.118064103836676,3.8599202948800015,3.5467251747867357,3.194598266942626,2.7786805180462575,2.2504677702984384,1.8427693263702387
( M()>=196. && M() < 197.) ,4.547358478149032,4.359157095251092,4.115890700370863,3.857125966002567,3.54343809262005,3.191048473830161,2.7739738167813606,2.2450544295712653,1.8369257149272802
( M()>=195. && M() < 196.) ,4.544800085650742,4.356382759924923,4.113694882733036,3.8541810216739902,3.540036433897981,3.1872950503216164,2.7691712227692973,2.2395433195551187,1.8310421709742468
( M()>=194. && M() < 195.) ,4.542098372673661,4.353503961735875,4.111481982985179,3.8510960425239062,3.5365292698361426,3.183345939956223,2.7642837272181877,2.233946638163154,1.8251321889786531
( M()>=193. && M() < 194.) ,4.539269867305232,4.350535022734145,4.109254135736806,3.8478805564208782,3.5329242348598546,3.1792087434522727,2.7593207302067517,2.2282759101691427,1.8192082212324254
( M()>=192. && M() < 193.) ,4.536329894331947,4.347488517896233,4.107010310784974,3.84454297194254,3.529227496927975,3.174890692439737,2.7542900279317526,2.222541934669296,1.8132816141346875
( M()>=191. && M() < 192.) ,4.533292424577325,4.34437517462462,4.104746400611083,3.841090530168861,3.5254437496982085,3.170398631577815,2.749197826429045,2.216754741655361,1.8073625576169665
( M()>=190. && M() < 191.) ,4.530169947115209,4.34120380063883,4.10245536138793,3.8375292752336145,3.521576226429315,3.165739009064567,2.7440487809057954,2.210923557968702,1.801460048022318
( M()>=189. && M() < 190.) ,4.526973365677596,4.337981240805509,4.100127405287168,3.8338640438119,3.5176267352051,3.160917875458194,2.7388460594472805,2.2050567828036556,1.7955818646199166
( M()>=188. && M() < 189.) ,4.523711920227811,4.334712363108717,4.097750241022644,3.83009847349035,3.513595714835241,3.1559408906103776,2.733591429535784,2.199161972838086,1.7897345597892518
( M()>=187. && M() < 188.) ,4.520393134388258,4.331400073520413,4.095309358757441,3.8262350297251264,3.5094823104981376,3.1508133384304773,2.728285365480121,2.1932458369775842,1.7839234627758598
( M()>=186. && M() < 187.) ,4.517022789028626,4.328045359236101,4.092788354727492,3.8222750508383267,3.5052844679837305,3.145540149085286,2.7229271745989263,2.187314240600452,1.778152696772477
( M()>=185. && M() < 186.) ,4.5136049220245384,4.3246473593375985,4.090169290223414,3.8182188102985584,3.5009990451254955,3.140125928172277,2.7175151397358186,2.181372219109258,1.7724252089611605
( M()>=184. && M() < 185.) ,4.51014185384007,4.321203461650945,4.087433078943761,3.814065595290843,3.496621938847345,3.1345749923110366,2.712046675500602,2.1754240004949903,1.7667428130089446
( M()>=183. && M() < 184.) ,4.506634238294595,4.317709424179339,4.084559896182474,3.809813800391498,3.4921482260184122,3.12889141051729,2.7065184954608266,2.1694730365425943,1.761106243394524
( M()>=182. && M() < 183.) ,4.503081137520241,4.31415951929097,4.081529602865924,3.80546103496509,3.487572316175692,3.1230790506754293,2.700926787403288,2.163522042224279,1.7555152208293705
( M()>=181. && M() < 182.) ,4.499480119868681,4.310546698478337,4.078322177125507,3.801004242725227,3.482888114025136,3.1171416303517097,2.695267393715578,2.1575730427456508,1.7499685279274957
( M()>=180. && M() < 181.) ,4.495827379218875,4.306862775349436,4.0749181458790895,3.796439831776899,3.4780891895118504,3.1110827711539804,2.6895359939150474,2.1516274276474503,1.744464094183266
( M()>=179. && M() < 180.) ,4.492117873890112,4.3030986242296265,4.071299008810538,3.791763813287504,3.4731689531759318,3.1049060557959933,2.683728286392288,2.1456860112947664,1.738999089228841
( M()>=178. && M() < 179.) ,4.488345483127938,4.29924439165807,4.067447647195175,3.786971946875567,3.468120834452303,3.098615087017182,2.677840166490381,2.1397490990315884,1.7335700232724238
( M()>=177. && M() < 178.) ,4.484503178964974,4.295289717857168,4.063348710207056,3.7820598906929868,3.462938460546546,3.0922135474630363,2.671867898176487,2.1338165582275517,1.7281728535501408
( M()>=176. && M() < 177.) ,4.480583211002504,4.291223965214546,4.058988971684967,3.7770233541378193,3.4576158335194758,3.085705259657018,2.665808276700638,2.127887893403336,1.7228030955787104
( M()>=175. && M() < 176.) ,4.476577301625711,4.2870364507115,4.054357650800925,3.7718582511164063,3.4521475032607007,3.079094245179827,2.659658779848396,2.121962324584176,1.7174559379560195
( M()>=174. && M() < 175.) ,4.472476848959008,4.282716679255572,4.049446690675524,3.7665608517526676,3.446528734075896,3.072384782195772,2.6534177056060795,2.1160388680087765,1.7121263594351614
( M()>=173. && M() < 174.) ,4.468273134843802,4.278254574837923,4.044250989726756,3.7611279304976013,3.4407556627251985,3.0655814604944216,2.6470842943277453,2.1101164183029804,1.7068092469841016
( M()>=172. && M() < 173.) ,4.463957535063573,4.273640706556207,4.038768581369514,3.755556908618568,3.434825445844854,3.058689233242772,2.6406588337678096,2.104193831217952,1.7014995135472506
( M()>=171. && M() < 172.) ,4.459521729042343,4.268866506573559,4.033000758630879,3.749845989147283,3.428736394854754,3.051713464709839,2.6341427456545086,2.0982700060355737,1.696192214240619
( M()>=170. && M() < 171.) ,4.454957906238335,4.263924477248234,4.026952141283396,3.743994282456027,3.42248809659855,3.044659973245039,2.6275386527858835,2.0923439667545445,1.6908826597388606
( M()>=169. && M() < 170.) ,4.450258966557402,4.25880838481253,4.020630684171174,3.7380019207692743,3.416081518162346,3.0375350689023572,2.6208504259700036,2.0864149411825634,1.6855665256579124
( M()>=168. && M() < 169.) ,4.445418712161958,4.2535134371647825,4.014047626563053,3.7318701600516513,3.4095190945225546,3.0303455851194596,2.6140832104552616,2.0804824370937025,1.6802399567832378
( M()>=167. && M() < 168.) ,4.440432028194625,4.248036443563319,4.00721738350444,3.725601467891447,3.4028047979006555,3.0230989039841463,2.607243431827476,2.07454631464066,1.6748996650614314
( M()>=166. && M() < 167.) ,4.435295050081159,4.24237595424719,4.000157381307918,3.7191995961735436,3.3959441879224137,3.0158029746679023,2.6003387816786376,2.068606854252773,1.6695430203475998
( M()>=165. && M() < 166.) ,4.430005315252304,4.236532378251527,3.992887840441083,3.7126696375380113,3.38894444194427,3.008466324711654,2.5933781836583174,2.0626648193033565,1.6641681329821523
( M()>=164. && M() < 165.) ,4.424561897324306,4.230508078003396,3.9854315101481457,3.7060180648289394,3.3818143651475108,3.001098063929897,2.5863717408164306,2.056721512881355,1.658773927364119
( M()>=163. && M() < 164.) ,4.418965521003681,4.224307439537179,3.9778133601375063,3.6992527529607413,3.3745643802587164,2.993707880790391,2.5793306654249304,2.050778828067928,1.6533602057876504
( M()>=162. && M() < 163.) ,4.413218656246654,4.217936917495056,3.97006023556417,3.6923829828361834,3.3672064970133273,2.986306031220592,2.5722671927046448,2.044839291183905,1.6479277019156346
( M()>=161. && M() < 162.) ,4.407325590404952,4.211405054371276,3.962200482310183,3.6854194272110727,3.3597542617288148,2.978903319881659,2.565194480114643,2.038906097546515,1.6424781233741332
( M()>=160. && M() < 161.) ,4.401292477445118,4.204722473804066,3.9542635501984704,3.678374118594064,3.3522226875980445,2.9715110740437427,2.5581264940422033,2.0329831393492235,1.6370141830682492
( M()>=159. && M() < 160.) ,4.395127363522128,4.197901847984711,3.9462795822470516,3.6712603995252393,3.344628166555713,2.9641411102796864,2.5510778858911243,2.02707502535881,1.6315396189370692
( M()>=158. && M() < 159.) ,4.388840188565644,4.190957839602399,3.9382789983734905,3.6640928557770227,3.336988363784987,2.9568056942825747,2.544063859678366,2.02118709220452,1.6260592019869706
( M()>=157. && M() < 158.) ,4.382442763740897,4.183907019023007,3.9302920820752223,3.6568872332463163,3.3293220961543657,2.9495174941906277,2.5371000333386746,2.015325407117574,1.62057873256235
( M()>=156. && M() < 157.) ,4.37594872502227,4.176767757690399,3.922348578539968,3.6496603395136273,3.321649196049353,2.942289527877747,2.5302022959708106,2.009496762064206,1.6151050249314656
( M()>=155. && M() < 156.) ,4.369373463335556,4.169560099028298,3.9144773123835406,3.6424299312058857,3.313990362252665,2.9351351047350343,2.5233866632669635,2.0037086592975566,1.6096458803837363
( M()>=154. && M() < 155.) ,4.362734032052769,4.162305608354116,3.906705832760433,3.635214588524847,3.306366999661731,2.9280677625319735,2.5166691333419013,1.9979692884393547,1.6042100491479412
( M()>=153. && M() < 154.) ,4.356049032867447,4.155027203574808,3.8990600929648425,3.628033578397478,3.2988010497649585,2.9211011999965772,2.5100655451006535,1.9922874952827867,1.5988071815542337
( M()>=152. && M() < 153.) ,4.349338481357188,4.147748968632764,3.891564170848321,3.6209067078951738,3.2913148139034,2.914249205799579,2.503591441185701,1.986672742586411,1.5934477689602442
( M()>=151. && M() < 152.) ,4.342623653759907,4.1404959518877575,3.884240035427684,3.6138541696486604,3.2839307714046955,2.907525584668336,2.4972619374180143,1.9811350632074982,1.5881430750684902
( M()>=150. && M() < 151.) ,4.33592691673328,4.133293951739909,3.8771073639816644,3.6068963811007624,3.276671394742763,2.900944081372173,2.4910916004734704,1.975685005991954,1.5829050583457132
( M()>=149. && M() < 150.) ,4.329271542055442,4.126169291980579,3.870183412748022,3.6000538194925507,3.26955896387776,2.894518303353218,2.4850943353597654,1.9703335749102509,1.577746286343023
( M()>=148. && M() < 149.) ,4.322681508406285,4.119148589434232,3.8634829430630364,3.5933468545375016,3.2626153819416612,2.88826164277171,2.4792832840431633,1.9650921619873347,1.572679842785099
( M()>=147. && M() < 148.) ,4.316181292532755,4.112258516550046,3.8570182034732876,3.5867955807441634,3.2558619943854907,2.882187198742192,2.4736707363546278,1.9599724746338634,1.567719228366345
( M()>=146. && M() < 147.) ,4.309795652213022,4.1055255616265,3.8507989670036267,3.580419651371379,3.2493194136510515,2.8763077005206212,2.4682680540608573,1.9549864580360308,1.5628782562384955
( M()>=145. && M() < 146.) ,4.303549403527904,4.098975789396987,3.8448326214476403,3.5742381159266965,3.2430073513459057,2.8706354323875107,2.4630856087411974,1.9501462133067782,1.5581709432294124
( M()>=144. && M() < 145.) ,4.297467195052878,4.0926346046541715,3.8391243092577105,3.5682692631166355,3.236944459781009,2.86518216093819,2.458132733857701,1.945463912135363,1.553611397852872
( M()>=143. && M() < 144.) ,4.29157328156246,4.0865265215899225,3.8336771124175884,3.5625304710391674,3.231148184606254,2.8599590654585105,2.453417691150199,1.9409517087070003,1.5492137062034335
( M()>=142. && M() < 143.) ,4.285891299907339,4.080674941395713,3.828492276573839,3.5570380663384826,3.2256346301185923,2.854976672017046,2.4489476512463906,1.9366216496812299,1.5449918168326544
( M()>=141. && M() < 142.) ,4.280444049660293,4.075101940630032,3.8235694677507603,3.5518071939090827,3.220418438650196,2.8502447918519653,2.4447286881266916,1.9324855830376262,1.540959425710261
( M()>=140. && M() < 141.) ,4.2752532810842885,4.069828072666223,3.8189070541699497,3.546851698595128,3.215512685248502,2.8457724645763953,2.4407657868671673,1.9285550665998679,1.5371298623562595
( M()>=139. && M() < 140.) ,4.270339492902842,4.064872184433725,3.8145024050833793,3.542184020185786,3.2109287886642464,2.841567906655327,2.4370628638596386,1.924841277053249,1.5335159782160412
( M()>=138. && M() < 139.) ,4.265721742228318,4.060251250441163,3.8103521981119948,3.537815102821556,3.206676439443306,2.837638465544511,2.4336227985263434,1.9213549202574176,1.5301300383124015
( M()>=137. && M() < 138.) ,4.261417468862255,4.055980225906203,3.806452726386255,3.5337543197552104,3.202763545699625,2.83399057980467,2.4304474753659457,1.9181061436448115,1.5269836171727593
( M()>=136. && M() < 137.) ,4.2574423360325575,4.052071920566104,3.8028001968007765,3.5300094141976546,3.1991961969166165,2.8306297454296914,2.4275378350297236,1.9151044514690283,1.5240874999735798
( M()>=135. && M() < 136.) ,4.253810089412684,4.048536894523199,3.799391010945737,3.526586456780171,3.1959786458928394,2.827560488553021,2.424893932999369,1.9123586236388075,1.521451589790725
( M()>=134. && M() < 135.) ,4.250532436077253,4.045383377229719,3.796222020735227,3.523489819966244,3.1931133087226953,2.824786344610504,2.422515004352172,1.909876638836061,1.5190848217709245
( M()>=133. && M() < 134.) ,4.24761894480495,4.042617210430544,3.7932907514344163,3.5207221694994857,3.190600782466686,2.8223098439698493,2.420399533032481,1.9076656025736454,1.5169950849711287
( M()>=132. && M() < 133.) ,4.245076968889905,4.040241815641948,3.790595585651248,3.5182844727919607,3.1884398799542044,2.8201325039482175,2.418545324017752,1.9057316807993219,1.5151891525268977
( M()>=131. && M() < 132.) ,4.2429115923435115,4.038258186428,3.788135902906534,3.5161760239158792,3.1866276809430496,2.818254827076814,2.416949576760962,1.9040800395997608,1.5136726207263262
( M()>=130. && M() < 131.) ,4.2411256001102515,4.036664905489852,3.785912170590517,3.5143944846655164,3.1851595986631853,2.816676305384515,2.415608958318063,1.9027147914979263,1.5124498574757608
( M()>=129. && M() < 130.) ,4.239719472604293,4.035458186266132,3.7839259834292194,3.5129359409503693,3.184029460582008,2.8153954304217796,2.4145196746206423,1.9016389487760887,1.5115239605483886
( M()>=128. && M() < 129.) ,4.238691404618519,4.0346319384836615,3.7821800499894405,3.5117949735817504,3.183229602060807,2.814409708664943,2.413677538433726,1.9008543841892866,1.5108967259093222
( M()>=127. && M() < 128.) ,4.238037348296781,4.034177856809726,3.7806781262058844,3.5109647423356387,3.1827509714173505,2.813715681898128,2.413078032641273,1.9003617993686963,1.5105686263105707
( M()>=126. && M() < 127.) ,4.237751079638234,4.0340855314901445,3.7794248973864604,3.510437082013826,3.1825832447781197,2.813308952109143,2.4127163676260386,1.900160701136354,1.510538800253949
( M()>=125. && M() < 126.) ,4.237824287633051,4.034342579600187,3.778425811600375,3.51020260904706,3.182714948993198,2.813184210395457,2.4125875316587084,1.9002493858901215,1.510805051316942
( M()>=124. && M() < 125.) ,4.238246684916293,4.034934795291034,3.777686868736831,3.5102508370906698,3.1831335907954226,2.8133352693368576,2.4126863333690642,1.900624932135249,1.51136385773747
( M()>=123. && M() < 124.) ,4.239006138467229,4.035846317173993,3.7772143708125356,3.510570299902274,3.183825790327597,2.8137550982662614,2.413007435546132,1.901283201175037,1.5122103920639658
( M()>=122. && M() < 123.) ,4.240088818701263,4.0370598107907805,3.7770146402562714,3.5111486797317992,3.184777417112412,2.814435860842028,2.413545379704288,1.902218845893092,1.5133385505783312
( M()>=121. && M() < 122.) ,4.2414793649791775,4.0385566639159665,3.7770937138833798,3.5119729393640013,3.185973726534016,2.8153689543201503,2.4142946010355977,1.9034253274952495,1.5147409921141053
( M()>=120. && M() < 121.) ,4.24316106540028,4.040317192259289,3.777457021064138,3.5130294559013224,3.1873994949037474,2.816545049914468,2.415249433571566,1.9048949400067419,1.516409185806602
( M()>=119. && M() < 120.) ,4.245116048475995,4.042320853017953,3.778109055158109,3.514304154363442,3.1890391512183944,2.81795413364207,2.416404105565552,1.9066188422585526,1.5183334672376851
( M()>=118. && M() < 119.) ,4.247325484153535,4.044546463581252,3.7790530476196067,3.515782639166151,3.190876903779518,2.8195855470608895,2.4177527253027984,1.9085870970280134,1.5205031023597144
( M()>=117. && M() < 118.) ,4.249769791471102,4.046972422615332,3.780290654259845,3.517450321560231,3.19289685992327,2.8214280273256316,2.4192892577262994,1.9107887169495281,1.5229063585250215
( M()>=116. && M() < 117.) ,4.252428850019799,4.049576930695891,3.7818216629753887,3.519292541168926,3.19508313721324,2.823469746025175,2.421007492445818,1.9132117167469849,1.525530581883939
( M()>=115. && M() < 116.) ,4.255282212301867,4.05233820760421,3.7836437318198803,3.521294679822097,3.1974199645757735,2.8256983462913414,2.4229010038545296,1.9158431713001307,1.5283622803714996
( M()>=114. && M() < 115.) ,4.258309313986676,4.055234703433948,3.7857521656130606,3.5234422659786993,3.1998917720011915,2.8281009777186465,2.4249631042307094,1.9186692790048592,1.5313872114535447
( M()>=113. && M() < 114.) ,4.261489679085375,4.058245300644393,3.788139738365061,3.525721068142861,3.202483267591977,2.8306643286811943,2.42718679083028,1.9216754298558447,1.5345904737797271
( M()>=112. && M() < 113.) ,4.2648031170252665,4.061349504292586,3.7907965676536737,3.5281171758099563,3.2051795009258632,2.8333746556934902,2.4295646880869417,1.9248462776442439,1.5379566018586157
( M()>=111. && M() < 112.) ,4.268229908712019,4.064527617750254,3.7937100457740587,3.530617066637729,3.207965911879742,2.836217809513381,2.432088986131374,1.9281658156372663,1.5414696628618416
( M()>=110. && M() < 111.) ,4.271750978681158,4.067760901329178,3.796864830992244,3.533207658700769,3.2108283642698106,2.839179257761823,2.4347513769082165,1.931617455090244,1.5451133546552116
( M()>=109. && M() < 110.) ,4.275348050616193,4.071031711411901,3.800242900627336,3.5358763468758485,3.2137531638724868,2.8422441038918196,2.4375429892191485,1.9351841059233252,1.548871104157906
( M()>=108. && M() < 109.) ,4.279003783634458,4.074323617843149,3.8038236660006066,3.5386110226020486,3.216727060602093,2.8453971024184925,2.4404543240467955,1.938848258894071,1.5527261651449984
( M()>=107. && M() < 108.) ,4.2827018869329265,4.077621497563516,3.8075841475554184,3.5414000764807647,3.219737234843603,2.848622670385479,2.443475191514532,1.9425920685942335,1.5566617146253887
( M()>=106. && M() < 107.) ,4.286427210602713,4.080911602699383,3.811499206731099,3.5442323833778455,3.2227712681583767,2.8519048951256325,2.446594650825587,1.946397436604594,1.5606609469614334
( M()>=105. && M() < 106.) ,4.290165810688358,4.084181601574669,3.8155418294920658,3.547097269943679,3.2258170987943555,2.8552275384385184,2.4498009544743264,1.9502460941584139,1.564707164926547
( M()>=104. && M() < 105.) ,4.2939049868169485,4.087420591411862,3.819683454837347,3.5499844646809153,3.2288629626521472,2.8585740373819837,2.4530814979765765,1.9541196836782941,1.5687838669472156
( M()>=103. && M() < 104.) ,4.297633291057612,4.09061908177134,3.823894340165768,3.5528840309152243,3.231897320557441,2.8619275019452277,2.456422776276979,1.9579998385802253,1.5728748298230524
( M()>=102. && M() < 103.) ,4.301340506973578,4.093768948119436,3.828143954109878,3.555786283287102,3.234908772891163,2.8652707099334322,2.459810347901927,1.9618682607649134,1.5769641862764274
( M()>=101. && M() < 102.) ,4.305017598197543,4.096863355234375,3.8324013863987516,3.558681688564357,3.237885962812581,2.8685860994613464,2.463228807816213,1.9657067952552976,1.581036496748197
( M()>=100. && M() < 101.) ,4.308656626213518,4.099896650515245,3.8366357635057633,3.5615607518385985,3.240817469480095,2.871855759502447,2.4666617698198885,1.969497501476413,1.5850768149202756
( M()>=99. && M() < 100.) ,4.3122506374064145,4.102864227611249,3.8408166583078924,3.5644138893553534,3.243691692831322,2.8750614190036616,2.4700918591860126,1.9732227207195288,1.589070746521938
( M()>=98. && M() < 99.) ,4.315793519836883,4.105762361153572,3.844914481747703,3.567231289444678,3.24649673161982,2.878184435107938,2.4735007161029583,1.9768651393803356,1.5930045010490785
( M()>=97. && M() < 98.) ,4.319279830574183,4.108588013716922,3.8489008445584414,3.570002763188883,3.2492202565241666,2.881205781077207,2.4768690103358257,1.9804078476116656,1.5968649361060372
( M()>=96. && M() < 97.) ,4.322704594834322,4.111338616516947,3.8527488775008027,3.5727175866650405,3.2518493802419797,2.884106034532728,2.4801764673707036,1.9838343930849998,1.600639594158598
( M()>=95. && M() < 96.) ,4.326063078527856,4.114011825686321,3.8564334992523266,3.575364336719779,3.2543705265559693,2.886865366655921,2.483401906157594,1.9871288296119607,1.604316731568765
( M()>=94. && M() < 95.) ,4.329350536237013,4.116605256315921,3.859931622092626,3.5779307224048105,3.256769300414698,2.889463533008623,2.4865232884146513,1.990275760432585,1.6078853398628434
( M()>=93. && M() < 94.) ,4.332561936982404,4.119116196787155,3.863222286808895,3.5804034142853873,3.259030361093299,2.891879866635098,2.489517779313086,1.9932603760376155,1.6113351592657874
( M()>=92. && M() < 93.) ,4.3356916704981545,4.121541306200801,3.8662867197919386,3.582767873946587,3.2611373005117823,2.894093274111939,2.4923618192192234,1.996068486447598,1.6146566846139268
( M()>=91. && M() < 92.) ,4.338733237071214,4.12387629804254,3.8691083070673327,3.585008186078995,3.2630725287651408,2.896082235198277,2.4950312060403097,1.9986865479335814,1.6178411638352097
( M()>=90. && M() < 91.) ,4.341678924296804,4.126115613438516,3.8716724819742643,3.5871068955647845,3.2648171688782046,2.8978248067163808,2.497501187594172,2.001101684216982,1.6208805892618727
( M()>=89. && M() < 90.) ,4.344519474371181,4.128252087622025,3.8739665253190227,3.589044852021925,3.266350962732219,2.8992986312739832,2.4997465633122364,2.0033017022465915,1.6237676821091807
( M()>=88. && M() < 89.) ,4.347243745799115,4.130276613418195,3.875979279054467,3.5908010642218144,3.267652190021884,2.900480951394774,2.501741794483432,2.005275102699104,1.6264958705230492
( M()>=87. && M() < 88.) ,4.3498383735841575,4.132177805736846,3.8777007768038776,3.592352566785656,3.2686976019908087,2.9013486295831306,2.503461122158511,2.0070110854067678,1.629059261657692
( M()>=86. && M() < 87.) ,4.35228743214862,4.133941671171466,3.879121796824733,3.593674301499367,3.2694623715615316,2.901878174800199,2.504878691762098,2.0084995499572296,1.6314526083040544
( M()>=85. && M() < 86.) ,4.354572105331826,4.135551286914438,3.8802333452242337,3.5947390154769487,3.2699200613261383,2.902045775765103,2.5059686833951296,2.0097310917609126,1.6336712706368717
( M()>=84. && M() < 85.) ,4.356670367924274,4.136986493237967,3.8810260793495006,3.5955171783201862,3.270042610696336,2.9018273414331928,2.5067054467718966,2.0106969939169,1.635711173693667
( M()>=83. && M() < 84.) ,4.358556683195612,4.138223603792957,3.881489683230945,3.5959769202449454,3.2698003433243383,2.9011985489315677,2.5070636396969697,2.0113892152493102,1.6375687612348486
( M()>=82. && M() < 83.) ,4.360201720880288,4.139235137946638,3.881612208698061,3.596083993022328,3.2691619957110443,2.900134899155464,2.507018368975611,2.0118003749122857,1.639240946663925
( M()>=81. && M() < 82.) ,4.361572100009476,4.139989579290868,3.8813793972818624,3.595801755358678,3.2680947677036163,2.8986117801501567,2.506545332644806,2.0119237339934952,1.6407250617096214
( M()>=80. && M() < 81.) ,4.362630160865329,4.140451164323267,3.8807739992158004,3.5950911841637225,3.266564395366852,2.896604538319194,2.505620962423021,2.011753174564036,1.6420188035853676
( M()>=79. && M() < 80.) ,4.363333770175241,4.140579705132998,3.8797751067140096,3.593910912906892,3.264535246482149,2.8940885574100927,2.504222565297013,2.011283176640143,1.6431201813492102
( M()>=78. && M() < 79.) ,4.363636163440393,4.140330449696819,3.878357519224586,3.5922172980350995,3.261970438694954,2.89103934514662,2.5023284631959033,2.010508793532746,1.6440274621872528
( M()>=77. && M() < 78.) ,4.363485828049877,4.139653983132223,3.876491158492739,3.589964514161752,3.258831980095134,2.887432627282188,2.499918129748212,2.0094256260661187,1.644739118334173
( M()>=76. && M() < 77.) ,4.362826430511843,4.138496172950863,3.874140551021797,3.587104678472377,3.2550809317756046,2.8832444487639153,2.496972323164223,2.0080297961472,1.645253775330428
( M()>=75. && M() < 76.) ,4.361596790800548,4.136798161007639,3.871264394880499,3.583588004505675,3.2506775916820714,2.878451281606667,2.493473214347064,2.006317920160532,1.6455701622913976
( M()>=74. && M() < 75.) ,4.3597309064145815,4.134496404456659,3.8678152267803974,3.579362985190185,3.245581698831999,2.8730301389933914,2.4894045094005968,2.004287082653627,1.6456870648355717
( M()>=73. && M() < 74.) ,4.357158028334679,4.131522767628071,3.8637392039518486,3.5743766047237817,3.2397526567592605,2.8669586950323134,2.484751565767926,2.0019348107629336,1.6456032812816686
( M()>=72. && M() < 73.) ,4.353802790594395,4.127804666262846,3.858976013593898,3.56857457859427,3.2331497748229543,2.8602154095266643,2.479501501312516,1.9992590498068308,1.6453175826820472
( M()>=71. && M() < 72.) ,4.349585394706989,4.123265265101251,3.853458920610262,3.5619016207356244,3.225732525815755,2.8527796570339152,2.473643295721148,1.9962581404491637,1.6448286772134013
( M()>=70. && M() < 71.) ,4.344421849663319,4.117823729312874,3.847114961982574,3.5543017365579574,3.217460818113476,2.8446318594250504,2.467167883688803,1.9929307978066235,1.644135179389629
( M()>=69. && M() < 70.) ,4.338224267699581,4.111395529736834,3.8398652935438684,3.5457185402663103,3.208295280433052,2.8357536210934615,2.460068239418451,1.9892760928393465,1.6432355845071542
( M()>=68. && M() < 69.) ,4.3309012154803455,4.103892801399123,3.831625692119684,3.5360955946603676,3.198197557105927,2.8261278659036204,2.4523394520397024,1.9852934363269645,1.6421282486690756
( M()>=67. && M() < 68.) ,4.322358119790181,4.095224754220325,3.8223072130860998,3.5253767713146056,3.187130611629704,2.8157389749216497,2.4439787916255806,1.9809825656907503,1.6408113746705664
( M()>=66. && M() < 67.) ,4.312497726266038,4.085298134300873,3.8118170003786256,3.5135066288111427,3.175059036144275,2.8045729239363193,2.434985765551372,1.976343534884693,1.6392830039601347
( M()>=65. && M() < 66.) ,4.301220609158484,4.0740177336505035,3.8000592429614817,3.5004308064836733,3.161949364371802,2.7926174197356013,2.425362165003703,1.9713767075247954,1.637541014821467
( M()>=64. && M() < 65.) ,4.288425729544104,4.061286945689167,3.78693626876965,3.486096430901781,3.147770385488442,2.7798620340918263,2.415112101509871,1.9660827533878167,1.6355831268507441
( M()>=63. && M() < 64.) ,4.274011038895677,4.047008363351257,3.7723497642456048,3.4704525321631623,3.132493456332537,2.766298334388104,2.4042420334096968,1.9604626483566656,1.6334069117320764
( M()>=62. && M() < 63.) ,4.2578741243926155,4.03108441613712,3.7562021048508227,3.453450466902421,3.1160928093289604,2.7519200098167116,2.3927607822439594,1.954517677843915,1.6310098102434687
( M()>=61. && M() < 62.) ,4.23991289186732,4.013418041984061,3.7383977794104344,3.4350443447808483,3.098545853494748,2.7367229920839216,2.3806795390784607,1.9482494436753783,1.6283891553558185
( M()>=60. && M() < 61.) ,4.220026281824055,3.9939133894075454,3.7188448888835706,3.415191455130843,3.079833465909516,2.7207055695719404,2.368011860821452,1.941659874367345,1.6255422012182108
( M()>=59. && M() < 60.) ,4.198115013547666,3.9724765449507204,3.697456698206469,3.3938526903456547,3.059940271073529,2.7038684939295985,2.3547736566302406,1.934751238684822,1.6224661577580082
( M()>=58. && M() < 59.) ,4.174082351927762,3.949016280645978,3.67415321825173,3.370992962561221,3.038854905636238,2.6862150780992033,2.3409831645299692,1.9275261623192912,1.6191582305605703
( M()>=57. && M() < 58.) ,4.147834891296786,3.9234448158440354,3.6488627937385267,3.3465816101609356,3.0165702660662315,2.667751284826253,2.3266609183986025,1.9199876474839064,1.6156156656333263
( M()>=56. && M() < 57.) ,4.119283350276379,3.8956785875332622,3.6215236721284008,3.3205927906528863,2.9930837369384906,2.648485804752897,2.3118297054913235,1.9121390951798323,1.6118357986058414
( M()>=55. && M() < 56.) ,4.088343371406955,3.8656390230273336,3.5920855281708723,3.2930058565040015,2.9683973976452664,2.6284301232500136,2.2965145147004784,1.903984329848542,1.607816107864041
( M()>=54. && M() < 55.) ,4.054936319128169,3.833253308758529,3.560510918839461,3.2638057106096205,2.942518205482503,2.6075985752123954,2.280742475763502,1.8955276260905578,1.603554271073711
( M()>=53. && M() < 54.) ,4.018990069577785,3.798455148790744,3.526776643915758,3.232983138169151,2.9154581532329726,2.5860083871166486,2.2645427896475576,1.8867737370963042,1.5990482245077198
( M()>=52. && M() < 53.) ,3.980439785590632,3.7611855066268993,3.490874988429097,3.200535111874761,2.887234399550301,2.563679705716873,2.247946650352992,1.8777279244088128,1.5942962245573287
( M()>=51. && M() < 52.) ,3.9392286702784705,3.721393323897161,3.4528148245422683,3.1664650675016963,2.85786937064673,2.5406356128429115,2.2309871583932894,1.8683959886112764,1.5892969107806811
( M()>=50. && M() < 51.) ,3.895308692636713,3.6790362095721143,3.412622552239879,3.1307831471561394,2.8273908319991503,2.5169021258564443,2.21369922622059,1.8587843005131606,1.5840493698205225
( M()>=49. && M() < 50.) ,3.8486412787208852,3.6340810934932857,3.3703428603239285,3.0935064076718377,2.795831929015362,2.4925081834153784,2.196119475883195,1.8488998323933923,1.5785531995086173
( M()>=48. && M() < 49.) ,3.7991979621295764,3.5865048381792777,3.3260392916907895,3.0546589918766314,2.763231195831708,2.4674856162944034,2.1782861292120206,1.8387501888479254,1.5728085724666805
( M()>=47. && M() < 48.) ,3.7469609877557044,3.536294803136608,3.2797945996240863,3.0142722607199484,2.7296325316581758,2.441869103116065,2.1602388908548624,1.8283436367820887,1.5668162985124705
( M()>=46. && M() < 47.) ,3.6919238630642774,3.4834493561764743,3.231710884836458,2.9723848845262664,2.6950851443327775,2.4156961109439217,2.1420188244915144,1.8176891340879067,1.560577885186199
( M()>=45. && M() < 46.) ,3.6340918515041447,3.4279783266286845,3.181909506175878,2.929042891939329,2.6596434609935953,2.3890068207980217,2.1236682225847536,1.806796356548827,1.554095595724264
( M()>=44. && M() < 45.) ,3.5734824030553884,3.369903395707473,3.1305307612278286,2.8842996754396744,2.623367006033273,2.361844038258497,2.1052304700447477,1.7956757225236994,1.5473725038268533
( M()>=43. && M() < 44.) ,3.5101255173671513,3.30925841977703,3.077733336428569,2.838215952629122,2.5863202467436697,2.334253089422025,2.0867499022084495,1.7843384149738386,1.5404125445907
( M()>=42. && M() < 43.) ,3.444064035429955,3.2460896827260073,3.0236935297058367,2.7908596828240864,2.5485724073102984,2.30628170258346,2.068271657563072,1.7727964004138252,1.5332205610099778
( M()>=41. && M() < 42.) ,3.375353856258871,3.180456074209796,2.968604252017966,2.7423059388170823,2.510197252051017,2.277979876111204,2.0498415256714746,1.761062444390526,1.5258023454856096
( M()>=40. && M() < 41.) ,3.304064075626358,3.112429191077963,2.9126738174162465,2.692636734027764,2.4712728390314638,2.2493997330827327,2.031505790787681,1.749150123117633,1.5181646758237888
