WP,FlatMassQCDEff_0p25,FlatMassQCDEff_0p3,FlatMassQCDEff_0p37,FlatMassQCDEff_0p46,FlatMassQCDEff_0p58,FlatMassQCDEff_0p74,FlatMassQCDEff_0p94,FlatMassQCDEff_1p25,FlatMassQCDEff_1p55
( M()>=199. && M() < 200.) ,3.535729007070378,3.3523813408472334,3.200441529419702,2.9811735260393757,2.6757582308990493,2.293095279730995,1.9693043525688583,1.5785204089939815,1.260252785801418
( M()>=198. && M() < 199.) ,3.553752274169515,3.373392634066349,3.2127350304259386,2.9925318125128255,2.6872770400103168,2.313197922380681,1.9933607399317932,1.599079303587414,1.2797710457450242
( M()>=197. && M() < 198.) ,3.572425288942124,3.394870268853815,3.2264069754370093,3.0047618720945275,2.6996806403793476,2.3336639931282113,2.0175136676063103,1.619516714078471,1.2990815578641097
( M()>=196. && M() < 197.) ,3.591701071440073,3.416755507130047,3.2414157487303585,3.0178305976293736,2.712933874471053,2.35444129361908,2.041678952074419,1.6397770213905738,1.318130558188303
( M()>=195. && M() < 196.) ,3.611529850508586,3.4389884573237346,3.2577071637434094,3.031700735473188,2.7269973432471737,2.3754767181548435,2.0657736957943253,1.6598059892554136,1.3368659709407877
( M()>=194. && M() < 195.) ,3.6318593970326343,3.461508493405531,3.2752148400616083,3.046331148857626,2.7418276752494166,2.3967165505552828,2.0897168983075454,1.679551055189776,1.3552376942909095
( M()>=193. && M() < 194.) ,3.652635372712899,3.4842546720563483,3.2938607633831363,3.0616771087615655,2.7573778246721186,2.4181067646302585,2.1134300432522144,1.6989616103593213,1.373197872523915
( M()>=192. && M() < 193.) ,3.6738016914853873,3.5071661443172544,3.313556024375771,3.077690609751105,2.773597395988551,2.4395933262130187,2.136837655791867,1.717989266569202,1.3907011528576592
( M()>=191. && M() < 192.) ,3.695300890500325,3.53018255799449,3.334201728867672,3.094320708149138,2.7904329924699236,2.461122494689845,2.15986782540447,1.7365881087048514,1.407704925249012
( M()>=190. && M() < 191.) ,3.717074507720725,3.5532444474937774,3.3556900684627013,3.1115138795280712,2.807828585661615,2.4826411219264544,2.18245268929121,1.75471493103878,1.4241695436691328
( M()>=189. && M() < 190.) ,3.7390634629423025,3.5762936077686027,3.3779055374290374,3.129214392601173,2.8257259027618327,2.5040969466137772,2.204528872297178,1.7723294559513902,1.4400585274737905
( M()>=188. && M() < 189.) ,3.761208439236282,3.5992734494005467,3.4007262786587615,3.1473646962571697,2.8440648286819767,2.5254388819004303,2.226037879601492,1.7893945337177701,1.4553387416427537
( M()>=187. && M() < 188.) ,3.783450261710721,3.622129332020931,3.424025538779872,3.1659058165257954,2.862783819432233,2.546617294382806,2.246926439129668,1.8058763221622365,1.4699805548319653
( M()>=186. && M() < 187.) ,3.8057302706213005,3.644808873581728,3.4476732100642646,3.184777760123546,2.881820323404778,2.5675842725060125,2.267146791143014,1.8217444451088682,1.4839579743416342
( M()>=185. && M() < 186.) ,3.8279906859023356,3.6672622333573006,3.471537434788145,3.203919921230659,2.9011112070666627,2.5882938824873674,2.2866569231180387,1.8369721287209368,1.4972487572829314
( M()>=184. && M() < 185.) ,3.850174960292486,3.6894423667074707,3.495486246144976,3.223271488149166,2.920593181515494,2.608702410022204,2.3054207486357834,1.851536314939429,1.5098344973995312
( M()>=183. && M() < 184.) ,3.8722281184025826,3.711305250075714,3.5193892187408014,3.242771846454926,2.940203226429418,2.628768586072326,2.3234082296759455,1.8654177514514272,1.5217006871806673
( M()>=182. && M() < 183.) ,3.8940970792141596,3.732810075138892,3.5431191011680374,3.2623609754839307,2.959879007889199,2.648453795153442,2.340595442251727,1.8786010576896757,1.5328367550782525
( M()>=181. && M() < 182.) ,3.9157309595819583,3.75391941108285,3.56655340314831,3.2819798348158273,2.9795592866973495,2.6677222647450636,2.356964586058793,1.8910747666275778,1.5432360778231435
( M()>=180. && M() < 181.) ,3.9370813566785285,3.7745993345603313,3.589575910288828,3.3015707378204757,2.9991843138964196,2.6865412344551434,2.3725039393234186,1.9028313422050198,1.5528959680064456
( M()>=179. && M() < 180.) ,3.9581026073571475,3.794819527189013,3.612078100566792,3.3210777092738413,3.018696210247458,2.704881103824067,2.3872077606618363,1.9138671724573442,1.5618176372674513
( M()>=178. && M() < 179.) ,3.9787520227514688,3.8145533406904044,3.633960438297172,3.3404468242369765,3.038039326764852,2.722715557768186,2.4010761402801495,1.9241825385193634,1.5700061355923238
( M()>=177. && M() < 178.) ,3.9989900965895346,3.833777830176216,3.6551335234285354,3.359626525773666,3.0571605833438156,2.740021668812942,2.4141148033839275,1.9337815598916122,1.5774702673912464
( M()>=176. && M() < 177.) ,4.018780685984387,3.8524737563251255,3.675519076588537,3.3785679189726,3.0760097829581925,2.756779975492324,2.426334869084692,1.9426721164607512,1.5842224851717714
( M()>=175. && M() < 176.) ,4.038091163712803,3.870625557583484,3.695050743279804,3.397225039296804,3.0945398989925477,2.772974536374189,2.4377525685349384,1.9508657479467026,1.590278761768816
( M()>=174. && M() < 175.) ,4.056892541219461,3.8882212936735314,3.71367470394096,3.4155550932707617,3.1127073335553685,2.788592959481782,2.4483889263650567,1.9583775315937846,1.5956584422271785
( M()>=173. && M() < 174.) ,4.075159561880312,3.9052525620178913,3.7313500801956403,3.4335186699645504,3.1304721449345734,2.803626406927288,2.4582694097841618,1.9652259390262958,1.600384076556145
( M()>=172. && M() < 173.) ,4.092870764282435,3.921714388856689,3.7480491314218747,3.451079921884416,3.147798242583858,2.8180695748675024,2.467423549962897,1.9714326733719094,1.6044812346831725
( M()>=171. && M() < 172.) ,4.110008515551198,3.9376050970567733,3.7637572397024863,3.468206714232224,3.164653548339851,2.831920649000619,2.475884540456676,1.9770224878189264,1.6079783050391359
( M()>=170. && M() < 171.) ,4.12655901499292,3.9529261527499666,3.7784726852044903,3.484870741735101,3.181010122912002,2.845181236070708,2.4836888175698744,1.9820229869343051,1.6109062782897672
( M()>=169. && M() < 170.) ,4.142512268573009,3.9676819930683256,3.7922062179702456,3.501047612581639,3.196844256935639,2.8578562719570417,2.490875627565866,1.9864644121417812,1.6132985178054684
( M()>=168. && M() < 169.) ,4.157862034968121,3.981879837353081,3.8049804359248696,3.516716899253495,3.2121365262415433,2.8699539071665074,2.49748658563233,1.9903794128492,1.6151905185212712
( M()>=167. && M() < 168.) ,4.1726057441631985,3.9955294842493716,3.816828982520958,3.5318621563640935,3.2268718113033437,2.8814853706596746,2.503565231426312,1.9938028048181142,1.6166196558864954
( M()>=166. && M() < 167.) ,4.186744389746604,4.008643097174172,3.8277955807804247,3.5464709058563115,3.2410392810920663,2.8924648131332997,2.509156585843073,1.9967713174071606,1.6176249266403302
( M()>=165. && M() < 166.) ,4.200282396308365,4.021234980619958,3.8379329234823647,3.5605345902357968,3.2546323419771643,2.902909131040763,2.5143067135232298,1.9993233313998122,1.618246683167525
( M()>=164. && M() < 165.) ,4.213227463426672,4.033321349709063,3.847301441825542,3.574048494761588,3.267648552449612,2.9128377727466748,2.5190622952744737,2.001498609149574,1.6185263632008695
( M()>=163. && M() < 164.) ,4.225590387995968,4.044920095462826,3.8559679770110575,3.587011639750335,3.280089504931733,2.9222725283611033,2.52347021436322,2.0033380188412098,1.6185062166299755
( M()>=162. && M() < 163.) ,4.237384866686225,4.056050547979319,3.864004380792023,3.5994266444307756,3.2919606760291082,2.9312373049151486,2.5275771602393635,2.0048832546458235,1.618229031162865
( M()>=161. && M() < 162.) ,4.248627280560493,4.066733239854988,3.8714860721092097,3.6112995639723735,3.3032712469523067,2.9397578886544355,2.5314292529126208,2.0061765545830186,1.6177378585553683
( M()>=160. && M() < 161.) ,4.259336463847929,4.076989671816627,3.878490577432309,3.6226397015531018,3.3140338960500175,2.9478616962936495,2.535071690771906,2.0072604178973297,1.617075743089427
( M()>=159. && M() < 160.) ,4.26953345907138,4.086842082598782,3.8850960823646976,3.633459397484672,3.3242645655938547,2.9555775171901595,2.538548424239852,2.0081773237283023,1.6162854539273135
( M()>=158. && M() < 159.) ,4.27924126074128,4.096313224747614,3.891380021441303,3.6437737975991196,3.3339822051851287,2.9629352484204556,2.5419018571775758,2.0089694528363204,1.6154092229147698
( M()>=157. && M() < 158.) ,4.288484549846708,4.105426148084358,3.8974177318713488,3.6536006032530444,3.343208494321608,2.969965624821623,2.5451725775514444,2.0096784141023756,1.614488489336111
( M()>=156. && M() < 157.) ,4.297289421476086,4.114203992072029,3.9032811952825375,3.662959805410585,3.35196754680442,2.9766999460619044,2.5483991183784505,2.010344977478966,1.6135636530496833
( M()>=155. && M() < 156.) ,4.3056831078071385,4.122669788563456,3.909037889347674,3.67187340535934,3.3602855998150405,2.983169802848239,2.551617749547923,2.0110088149984415,1.6126738373504663
( M()>=154. && M() < 155.) ,4.313693698807253,4.130846275728782,3.9147497685672104,3.6803651247318068,3.3681906905658607,2.9894068043537088,2.5548623006822346,2.0117082513895133,1.6118566628155881
( M()>=153. && M() < 154.) ,4.321349862850608,4.13875572420922,3.920472390507319,3.6884601075000445,3.375712323551146,2.9954423089403104,2.558164014787529,2.012480025764515,1.6111480333003358
( M()>=152. && M() < 153.) ,4.328680569479718,4.146419776058858,3.926254200512987,3.6961846166672743,3.3828811313871503,3.0013071602222103,2.5615514320381756,2.013359065758877,1.6105819351464217
( M()>=151. && M() < 152.) ,4.335714816468833,4.153859297001598,3.9321359844033434,3.703565728404626,3.389728532361938,3.007031430439193,2.5650503027188685,2.014378275414364,1.610190250568539
( M()>=150. && M() < 151.) ,4.342481363245107,4.161094242316964,3.9381504949982222,3.7106310263121642,3.3962863877155858,3.0126441730941664,2.568683527980568,2.0155683379846714,1.6100025860779674
( M()>=149. && M() < 150.) ,4.3490084726640665,4.168143536461079,3.9443222545882772,3.717408298482433,3.402586661689448,3.018173186669193,2.5724711268166836,2.016957534755665,1.6100461166963096
( M()>=148. && M() < 149.) ,4.355323663017242,4.175024966477449,3.9506675317382896,3.7239252399747396,3.4086610873018706,3.023644791182939,2.5764302274074566,2.0185715808383256,1.6103454466040057
( M()>=147. && M() < 148.) ,4.361453472039423,4.1817550890052075,3.957194487179297,3.7302091631945284,3.414540840743912,3.02908361922071,2.5805750807818253,2.0204334787941787,1.6109224867644394
( M()>=146. && M() < 147.) ,4.367423234575539,4.188349150662723,3.963903480081299,3.7362867186182873,3.4202562271545895,3.0345124229689326,2.58491709460293,2.022563390820283,1.6117963499488892
( M()>=145. && M() < 146.) ,4.373256875416188,4.194821021399682,3.9707875227764133,3.7421836281301077,3.42583638043001,3.039951898612813,2.5894648847721666,2.024978530108355,1.6129832634916976
( M()>=144. && M() < 145.) ,4.378976718691911,4.2011831404061475,3.977832869092377,3.7479244331311525,3.431308979552837,3.0454205293659653,2.5942243424921605,2.027693071853986,1.6144964999916271
( M()>=143. && M() < 144.) ,4.38460331503787,4.20744647403267,3.9850197189160212,3.7535322594174914,3.436699983757466,3.050934448206322,2.599198714417876,2.0307180842852395,1.6163463260771578
( M()>=142. && M() < 143.) ,4.390155287656191,4.213620485148855,3.992323019487649,3.759028600643541,3.4420333886615913,3.056507321243601,2.6043886935592644,2.0340614799239956,1.6185399692522524
( M()>=141. && M() < 142.) ,4.39564919816253,4.21971311335352,3.9997133422753626,3.7644331220055216,3.447331005288078,3.0621502524909885,2.6097925186747783,2.0377279871995095,1.6210816027425563
( M()>=140. && M() < 141.) ,4.401099433021044,4.225730765393597,4.007157813123657,3.769763485614257,3.452612263665101,3.0678717106088427,2.615406080011743,2.041719142382598,1.6239723481681865
( M()>=139. && M() < 140.) ,4.406518111168702,4.231678315197595,4.014621072723395,3.7750351987696527,3.4578940424831366,3.0736774780425353,2.6212230293997156,2.046033301689171,1.6272102957791854
( M()>=138. && M() < 139.) ,4.41191501329388,4.237559112873755,4.02206624433743,3.7802614861909567,3.4631905260169895,3.079570622773297,2.6272348928833513,2.0506656732940454,1.6307905419048243
( M()>=137. && M() < 138.) ,4.417297533045612,4.243375002142991,4.029455886115555,3.7854531870068295,3.4685130892904072,3.0855514927314163,2.633431184295615,2.0556083688594753,1.6347052431851252
( M()>=136. && M() < 137.) ,4.422670650322287,4.249126345615853,4.036752906235987,3.790618677096089,3.4738702121799303,3.0916177327360175,2.639799518399499,2.060850474075213,1.6389436870756044
( M()>=135. && M() < 136.) ,4.428036926598935,4.2548120574462605,4.04392142050361,3.7957638171546413,3.4792674229184994,3.097764323638096,2.646325722467816,2.06637813759749,1.643492378045801
( M()>=134. && M() < 135.) ,4.433396522118926,4.260429642897412,4.050927533851687,3.8008919266208188,3.484707271153464,3.1039836431763295,2.6529939454357354,2.072174677667636,1.648335138817653
( M()>=133. && M() < 134.) ,4.438747234587214,4.265975244439385,4.0577400294246635,3.806003783391844,3.490189330509234,3.11026554788588,2.6597867640127233,2.0782207055837234,1.6534532259341275
( M()>=132. && M() < 133.) ,4.444084558907093,4.27144369404517,4.064330951475636,3.8110976490090525,3.4957102302778686,3.1165974752065884,2.6666852854035623,2.0844942651181615,1.6588254588805624
( M()>=131. && M() < 132.) ,4.449401767268737,4.276828571399592,4.070676071155849,3.8161693188095307,3.501263715644306,3.122964564821966,2.6736692465383016,2.0909709868676196,1.664428361933616
( M()>=130. && M() < 131.) ,4.454690008840536,4.282122267823167,4.076755227325249,3.821212196298178,3.506840735598619,3.129349798062113,2.680717109951507,2.0976242564603376,1.6702363178555302
( M()>=129. && M() < 130.) ,4.459938428112217,4.287316055726522,4.082552537700362,3.826217390803027,3.512429557427942,3.135734154095468,2.6878061566680254,2.1044253954509142,1.6762217325118676
( M()>=128. && M() < 129.) ,4.465134300828922,4.29240016346092,4.088056478914846,3.831173837279722,3.51801590646647,3.1420967814794247,2.694912576661126,2.1113438536861957,1.682355209443327
( M()>=127. && M() < 128.) ,4.470263186322037,4.297363855485775,4.093259837305499,3.8360684369403844,3.5235831295519513,3.1484151835471463,2.7020115576038672,2.118347411849486,1.6886057333896232
( M()>=126. && M() < 127.) ,4.475309094913816,4.302195517775562,4.098159535403856,3.840886217204329,3.529112380443962,3.1546654159748546,2.7090773727993307,2.125402392851845,1.6949408617272457
( M()>=125. && M() < 126.) ,4.480254668967154,4.3068827483948064,4.102756342100128,3.8456105093104127,3.5345828252555087,3.1608222947878706,2.716083469263437,2.132473880690472,1.7013269227564518
( M()>=124. && M() < 125.) ,4.485081376022219,4.3114124531831095,4.107054477239283,3.8502231417753907,3.539971865790736,3.1668596130031283,2.7230025570223315,2.13952594536197,1.7077292197459009
( M()>=123. && M() < 124.) ,4.489769712384084,4.31577094646959,4.1110611238798676,3.8547046477462015,3.545255378519104,3.172750364014991,2.7298067007116877,2.1465218723929156,1.7141122396264874
( M()>=122. && M() < 123.) ,4.494299415415005,4.31994405668856,4.114785863603772,3.859034484177424,3.550407966789255,3.1784669697978916,2.736467414574984,2.1534243955314176,1.720439865205857
( M()>=121. && M() < 122.) ,4.498649682705575,4.323917236745819,4.118240052012692,3.863191260661927,3.5554032237701003,3.183981511971475,2.742955761908876,2.1601959311394707,1.726675589767185
( M()>=120. && M() < 121.) ,4.502799396230235,4.327675678906995,4.12143615287269,3.867152975644882,3.5602140035132948,3.1892659637363043,2.7492424599341527,2.166798812820774,1.732782732905632
( M()>=119. && M() < 120.) ,4.506727349520586,4.33120443391038,4.124387050246108,3.87089725770214,3.5648126974704843,3.19429242071791,2.7552979909562323,2.173195524831325,1.7387246564533398
( M()>=118. && M() < 119.) ,4.510412475847715,4.334488533919318,4.127105358332382,3.874401609493342,3.56917151374317,3.199033328744078,2.7610927205348883,2.179348932839547,1.744464979346541
( M()>=117. && M() < 118.) ,4.513834075355495,4.33751311883663,4.129602748664372,3.8776436519835698,3.5732627563316943,3.2034617066308155,2.76659702320789,2.185222510620771,1.749967790291802
( M()>=116. && M() < 117.) ,4.516972039068513,4.340263565377208,4.131889313736884,3.880601366508206,3.577059101642831,3.2075513620946627,2.7717814161114855,2.1907805613179416,1.7551978571003666
( M()>=115. && M() < 116.) ,4.5198070676804525,4.3427256182110625,4.133972985119775,3.88325333226618,3.580533869548332,3.2112770989680044,2.776616700615284,2.195988431929212,1.7601208315739434
( M()>=114. && M() < 115.) ,4.522320883030992,4.344885522337527,4.135859022647653,3.8855789568552543,3.5836612863311554,3.214614913984726,2.7810741118466153,2.200812719741678,1.764703448844279
( M()>=113. && M() < 114.) ,4.524496430199048,4.346730155752566,4.137549589409226,3.8875586975111536,3.58641673693163,3.217542181475614,2.7851254757233597,2.2052214694884698,1.7689137200965057
( M()>=112. && M() < 113.) ,4.526318068163418,4.348247161335705,4.139043425040785,3.889174270776948,3.5887770040021088,3.220037824446581,2.788743372855436,2.209184360064104,1.772721117629411
( M()>=111. && M() < 112.) ,4.527771747048861,4.349425076767303,4.140335627295457,3.890408848424552,3.590720491396318,3.2220824706026145,2.79190130839839,2.2126728797112594,1.7760967512491497
( M()>=110. && M() < 111.) ,4.5288451700163925,4.350253461183003,4.141417549091732,3.891247237548653,3.5922274298566474,3.223658592031502,2.7945738866974006,2.2156604886699247,1.7790135350236447
( M()>=109. && M() < 110.) ,4.529527937962689,4.350723017153775,4.142276815279006,3.8916760428865116,3.5932800628292947,3.224750627396309,2.796736989291505,2.2181227683561775,1.7814463434778578
( M()>=108. && M() < 109.) ,4.529811675277679,4.350825706502155,4.142897460293236,3.891683809556917,3.593862810508672,3.2253450856337467,2.7983679546212854,2.2200375562374877,1.7833721563524063
( M()>=107. && M() < 108.) ,4.529690135035485,4.350554858380915,4.143260184760322,3.8912611445772405,3.593962410418048,3.2254306303162905,2.7994457575605205,2.221385065656875,1.7847701911111293
( M()>=106. && M() < 107.) ,4.52915928212708,4.349905267985718,4.143342726019457,3.8904008156919745,3.593568033039409,3.2249981440058426,2.7999511867023905,2.2221479899634176,1.7856220224364057
( M()>=105. && M() < 106.) ,4.528217352992602,4.348873284236924,4.143120334555366,3.889097826244117,3.5926713712413774,3.2240407720908406,2.7998670171683697,2.2223115904035255,1.7859116880218588
( M()>=104. && M() < 105.) ,4.526864890786397,4.347456884743101,4.142566345517524,3.8873494650253773,3.591266702490845,3.2225539457815215,2.799178176580446,2.2218637673362642,1.7856257800389237
( M()>=103. && M() < 104.) ,4.525104754987563,4.345655736381066,4.141652831921606,3.88515533026512,3.5893509230887544,3.220535384115175,2.797871901747193,2.2207951144441322,1.7847535217307973
( M()>=102. && M() < 103.) ,4.522942104675751,4.343471239847722,4.140351323853338,3.88251732714609,3.5869235539316,3.2179850750003705,2.7959378835658892,2.2190989557176426,1.78328682866662
( M()>=101. && M() < 102.) ,4.520384354900707,4.340906556619513,4.138633576056065,3.87943963848231,3.583986717570219,3.214905235512303,2.7933683976364776,2.216771365109096,1.7812203542713327
( M()>=100. && M() < 101.) ,4.517441105810271,4.337966616831647,4.136472364752553,3.8759286684373206,3.580545086607281,3.2113002518289884,2.7901584181228363,2.2138111688562008,1.7785515193363672
( M()>=99. && M() < 100.) ,4.514124044435991,4.3346581067238805,4.133842293448826,3.871992959421627,3.5766058037545494,3.207176599373733,2.7863057124807886,2.210219930592868,1.7752805253061337
( M()>=98. && M() < 99.) ,4.51044681928833,4.330989434441112,4.130720586826603,3.867643082562923,3.5721783741420174,3.202542743897129,2.7818109148024877,2.206001919473763,1.7714103512301695
( M()>=97. && M() < 98.) ,4.506424888172344,4.326970673161423,4.127087851672642,3.8628915024076913,3.5672745307476057,3.197409024403065,2.7766775757016564,2.201164061648361,1.7669467343678265
( M()>=96. && M() < 97.) ,4.502075339898692,4.3226134807260586,4.122928784120993,3.8577524167650763,3.5619080740789766,3.1917875189717275,2.7709121868820783,2.1957158755272723,1.7618981345313078
( M()>=95. && M() < 96.) ,4.497416690831275,4.317930995181565,4.118232803296268,3.852241572869483,3.556094687505866,3.1856918946911863,2.7645241787891646,2.1896693913911984,1.7562756823524783
( M()>=94. && M() < 95.) ,4.492468657487917,4.312937705899887,4.1129945927290645,3.8463760612826365,3.549851729878731,3.1791372430394906,2.757525890041412,2.1830390559860002,1.7500931117607972
( M()>=93. && M() < 94.) ,4.487251906670841,4.30764930021218,4.1072145326441225,3.840174089201369,3.543198007329097,3.1721399021896954,2.7499325076678143,2.1758416228528503,1.7433666770618474
( M()>=92. && M() < 93.) ,4.481787784875783,4.3020824858024636,4.100899008364146,3.8336547350728303,3.5361535263413693,3.1647172678355737,2.7417619775343764,2.168096029228094,1.7361150551017652
( M()>=91. && M() < 92.) ,4.476098028980229,4.296254789399596,4.094060582582149,3.8268376866349754,3.528739230419676,3.156887594215926,2.733034884728079,2.159823260432893,1.7283592331096613
( M()>=90. && M() < 91.) ,4.470204460463337,4.290184332643031,4.086718022086564,3.819742964711014,3.5209767228400284,3.148669787129156,2.723774304065438,2.151046202757016,1.7201223829000754
( M()>=89. && M() < 90.) ,4.464128665643133,4.283889586318395,4.078896172609069,3.8123906352683385,3.5128879781566034,3.140083190787733,2.7140056213072867,2.1417894859074096,1.7114297222134256
( M()>=88. && M() < 89.) ,4.457891664637899,4.277389104492956,4.0706256787518305,3.804800512430526,3.504495045267917,3.1311473704240202,2.7037563260814768,2.132079316164752,1.7023083640659187
( M()>=87. && M() < 88.) ,4.451513571957389,4.270701240411492,4.06194254935726,3.796991855268381,3.4958197449702313,3.121881892604642,2.6930557779340347,2.121943301442197,1.6927871550602103
( M()>=86. && M() < 87.) ,4.44501325181803,4.2638438463373864,4.0528875721486814,3.7889830613282167,3.4868833650173703,3.112306105233523,2.6819349473425853,2.1114102694957295,1.6828965036933399
( M()>=85. && M() < 86.) ,4.4384079714197044,4.256833959836575,4.043505584913928,3.7807913599513108,3.477706355772826,3.1024389192337063,2.6704261339248863,2.100510080572067,1.6726681997688786
( M()>=84. && M() < 85.) ,4.431713055570147,4.2496874792963535,4.033844613851599,3.7724325085106547,3.4683080295761646,3.0922985938933976,2.6585626644543203,2.089273435814286,1.6621352260904019
( M()>=83. && M() < 84.) ,4.4249415461278945,4.242418831754882,4.023954892887732,3.7639204947360856,3.4587062669568365,3.0819025278344587,2.646378573649289,2.077731682769077,1.6513315636703854
( M()>=82. && M() < 83.) ,4.4181038698188875,4.2350406363579385,4.01388778071648,3.755267248314846,3.448917232804411,3.071267057525072,2.633908271021407,2.0659166193493443,1.6402919917423846
( M()>=81. && M() < 82.) ,4.4112075180172505,4.227563366992386,4.003694594972078,3.746482364939112,3.438955105557943,3.060407265198696,2.6211861973549295,2.0538602976132116,1.6290518839055217
( M()>=80. && M() < 81.) ,4.404256742083146,4.219995017827427,3.9934253852288353,3.7375728459279056,3.428831822393408,3.0493367979728774,2.6082464746279657,2.0415948287145564,1.6176470017646936
( M()>=79. && M() < 80.) ,4.397252267829104,4.212340775647479,3.9831276684116395,3.7285428564722634,3.4185568432823374,3.0380676998707363,2.5951225533827804,2.029152190361167,1.606113287452617
( M()>=78. && M() < 79.) ,4.390191032609567,4.204602702972095,3.972845151628008,3.7193935054516736,3.4081369366550227,3.0266102583506593,2.581846861692904,2.01656403809796,1.5944866564347966
( M()>=77. && M() < 78.) ,4.38306594844013,4.196779436025738,3.9626164683757414,3.7101226496253443,3.3975759892368727,3.014972866828209,2.5684504599697213,2.003861521692133,1.5828027919999177
( M()>=76. && M() < 77.) ,4.375865694402064,4.188865901637637,3.9524739545142746,3.7007247248421677,3.3868748424356205,3.0031619045554536,2.554962705878775,1.991075107860571,1.5710969428319075
( M()>=75. && M() < 76.) ,4.368574541420536,4.180853057130799,3.9424424902923914,3.691190606712953,3.3760311574383195,2.9911816350744567,2.541410933620089,1.978234410518568,1.5594037250418367
( M()>=74. && M() < 75.) ,4.361172212295801,4.172727657177591,3.932538434105234,3.6815075029696276,3.36503931094082,2.9790341243152216,2.527820151737963,1.9653680296835994,1.5477569300067278
( M()>=73. && M() < 74.) ,4.353633779616886,4.1644720514785565,3.9227686725093704,3.6716588794839176,3.353890323166034,2.966719179253117,2.5142127634946925,1.9525034000766746,1.5361893393269557
( M()>=72. && M() < 73.) ,4.345929603914263,4.156064016942877,3.9131298093810627,3.6616244216488893,3.342571819551808,2.9542343078660362,2.500608313641462,1.9396666504151665,1.5247325481598972
( M()>=71. && M() < 72.) ,4.3380253141030565,4.147476627826632,3.9036075149805685,3.65138003253007,3.331068027189757,2.9415747009626982,2.4870232651735114,1.9268824742825286,1.5134167981287534
( M()>=70. && M() < 71.) ,4.329881831923531,4.138678167011668,3.8941760531313143,3.6408978688817126,3.31935980678748,2.9287332362742053,2.473470809355347,1.9141740133886298,1.5022708209373112
( M()>=69. && M() < 70.) ,4.32145544173453,4.129632081291488,3.884798001773282,3.6301464157918923,3.3074247206028056,2.9157005050164506,2.4599607119494737,1.901562753929928,1.4913216937400353
( M()>=68. && M() < 69.) ,4.3126979066246856,4.120296983169304,3.875424178869875,3.619090600376959,3.2952371364710085,2.9024648609478194,2.4464991981943855,1.8890684366639952,1.4805947072302397
( M()>=67. && M() < 68.) ,4.303556631398265,4.110626701273592,3.8659937820924224,3.60769194459535,3.282768367710172,2.8890124917595617,2.4330888786402967,1.876708981204815,1.4701132473133618
( M()>=66. && M() < 67.) ,4.2939748725902485,4.100570381058793,3.85643474694271,3.595908756882865,3.269986848351895,2.875327512454779,2.419728717488521,1.8645004249403467,1.459898691130182
( M()>=65. && M() < 66.) ,4.283891995210105,4.090072636990201,3.8466643240780987,3.5836963619534945,3.256858342811601,2.8613920801865014,2.4064140445886912,1.8524568768627965,1.4499703180833907
( M()>=64. && M() < 65.) ,4.273243775500005,4.079073756918117,3.836589872643611,3.571007367739947,3.2433461887797272,2.8471865298474435,2.3931366117316255,1.8405904864905243,1.4403452364093279
( M()>=63. && M() < 64.) ,4.261962748529647,4.067509958827529,3.826109862470056,3.557791968090063,3.229411571791969,2.8326895295357795,2.3798846933500903,1.8289114279470693,1.431038325714362
( M()>=62. && M() < 63.) ,4.24997859903006,4.055313699615273,3.8151150741404503,3.5439982794755083,3.215013829626823,2.817878254847328,2.366643231204923,1.8174278991513684,1.422062195775381
( M()>=61. && M() < 62.) ,4.2372185934147595,4.042414035005228,3.803489982230681,3.5295727096311484,3.200110784376556,2.8027285807967677,2.3533940220976084,1.8061461359607354,1.4134271617762486
( M()>=60. && M() < 61.) ,4.2236080505293145,4.028737029161108,3.791114303566627,3.514460355707137,3.184659099761739,2.787215290010595,2.340115947123767,1.7950704409978282,1.4051412360275488
( M()>=59. && M() < 60.) ,4.209070848251459,4.014206212010629,3.7778646891716763,3.4986054292062927,3.1686146609918073,2.771312295708843,2.3267852404670104,1.784203226787442,1.3972101360886053
( M()>=58. && M() < 59.) ,4.193529962670715,3.99874308175804,3.763616535766986,3.4819517046873867,3.1519329742421225,2.7549928778569504,2.3133757952402547,1.7735450727223192,1.3896373090861127
( M()>=57. && M() < 58.) ,4.17690803622288,3.9822676495381124,3.7482458902831284,3.4644429889447492,3.1345695825995303,2.73822993076146,2.299859503414778,1.7630947952797955,1.3824239718979938
( M()>=56. && M() < 57.) ,4.159127970799985,3.9646990226560193,3.731631418891484,3.446023607134982,3.116480495140105,2.720996220283212,2.286206626444831,1.7528495308168255,1.3755691667518606
( M()>=55. && M() < 56.) ,4.14011354155855,3.945956022393596,3.713656410601387,3.426638902108309,3.0976226256549992,2.7032646487552396,2.272386192803884,1.7428048301780086,1.3690698316696588
( M()>=54. && M() < 55.) ,4.119790026869435,3.925957831904269,3.694210784521469,3.406235743021657,3.0779542373976567,2.6850085256232594,2.2583664182959016,1.7329547642768,1.362920885076994
( M()>=53. && M() < 54.) ,4.098084849622915,3.904624669323817,3.6731930694666097,3.384763039167905,3.057435390147973,2.6662018417753646,2.2441151447085104,1.7232920397262979,1.357115323793026
( M()>=52. && M() < 53.) ,4.074928224902734,3.881878480854809,3.650512324714797,3.3621722548386064,3.036028385813103,2.646819545485005,2.2296002921239015,1.7138081235334566,1.3516443335144122
( M()>=51. && M() < 52.) ,4.050253808893139,3.857643648269902,3.626089971369572,3.3384179209697864,3.0136982087678352,2.6268378178747724,2.214790320012866,1.7044933758106597,1.3464974108184258
( M()>=50. && M() < 51.) ,4.023999343783913,3.831847705013383,3.599861504961298,3.313458139280879,2.9904129571371563,2.6062343457977226,2.199654692103043,1.695337189405048,1.3416624956266268
( M()>=49. && M() < 50.) ,3.9961072933653896,3.8044220548749363,3.571778061589555,3.2872550746245017,2.966144261269182,2.584988590051659,2.1841643399371033,1.6863281353071797,1.3371261129982892
( M()>=48. && M() < 49.) ,3.9665254640110654,3.775302687050282,3.5418078120452554,3.259775431301051,2.94086768572024,2.5630820468624393,2.1682921200237533,1.6774541126647171,1.3328735230585933
( M()>=47. && M() < 48.) ,3.9352076057705263,3.7444308813253437,3.5099371609114196,3.230990909178409,2.9145631111821433,2.540498500621039,2.1520132595306922,1.6687025022054889,1.3288888778153787
( M()>=46. && M() < 47.) ,3.9021139883876335,3.711753897076097,3.476171730576069,3.200878635574864,2.887215092926066,2.517224265916629,2.135305785573051,1.6600603218585075,1.3251553835742496
( M()>=45. && M() < 46.) ,3.8672119471934163,3.67722563982329,3.4405371133513647,3.1694215690173606,2.8588131925061546,2.493248416981547,2.118150933318174,1.6515143833582555,1.3216554676326147
( M()>=44. && M() < 45.) ,3.8304763940040885,3.6408072991667235,3.4030793784118454,3.136608871186118,2.829352279671971,2.4685630027560226,2.1005335283439637,1.6430514486214727,1.3183709479133245
( M()>=43. && M() < 44.) ,3.79189028837734,3.6024679520904033,3.3638653239886063,3.1024362435773494,2.7988328016664856,2.4431632458806356,2.082442338962383,1.634658384700118,1.3152832041889664
( M()>=42. && M() < 43.) ,3.7514450648645115,3.56218512583847,3.3229824691082426,3.066906225680034,2.7672610173439085,2.4170477240394104,2.063870394541409,1.6263223161381606,1.3123733495533656
( M()>=41. && M() < 42.) ,3.70914101219344,3.5199453148519932,3.2805387830886144,3.030028451750714,2.734649193819739,2.3902185322060445,2.0448152662233916,1.6180307735910282,1.309622400808383
( M()>=40. && M() < 41.) ,3.6649876006802584,3.475744446577709,3.236662154922699,2.99181986358829,2.7010157636643997,2.3626814244818704,2.025279306845125,1.6097718376082013,1.3070114464621838
