systs,SF_pT_250_450,SF_pT_450_500,SF_pT_500_600,SF_pT_600_1000
statistic,0.301476,0.235530,0.215684,0.158947
nominal,0.814069,1.171875,1.119920,0.557925
weight_leptonSF_EL_SF_Reco,0.002071,0.002415,0.002143,0.000952
weight_leptonSF_EL_SF_ID,0.004502,0.008954,0.009185,0.005045
weight_leptonSF_EL_SF_Isol,0.001441,0.003219,0.003572,0.002094
weight_leptonSF_MU_SF_ID_Stat_LowPt,0.000000,0.000000,0.000000,0.000000
weight_leptonSF_MU_SF_ID_Syst_LowPt,0.000000,0.000000,0.000000,0.000000
weight_leptonSF_MU_SF_ID_Stat,0.000630,0.000604,0.000612,0.000333
weight_leptonSF_MU_SF_ID_Syst,0.004322,0.006439,0.006837,0.006426
weight_leptonSF_MU_SF_Isol_Stat,0.001621,0.002515,0.002551,0.001380
weight_leptonSF_MU_SF_Isol_Syst,0.003602,0.005030,0.005001,0.002665
weight_leptonSF_MU_SF_TTVA_Stat,0.000450,0.000604,0.000612,0.000333
weight_leptonSF_MU_SF_TTVA_Syst,0.000720,0.000905,0.000918,0.000524
EG_RESOLUTION_ALL,0.014919,-0.000503,0.001020,0.000333
EG_SCALE_ALL,0.020014,0.031893,0.029901,0.018705
MUON_CB,0.003962,0.001207,-0.000204,0.001904
MUON_SAGITTA_RESBIAS,0.003151,0.000000,-0.001939,0.001333
MUON_SAGITTA_DATASTAT,0.001711,0.000101,0.000714,0.000190
MUON_SCALE,0.002161,0.000805,0.001225,0.000333
JET_EffectiveNP_R10_Statistical1,0.016591,0.008270,0.005802,0.008256
JET_EffectiveNP_R10_Statistical2,0.016591,0.015440,0.018443,0.002988
JET_EffectiveNP_R10_Statistical3,0.016591,0.000309,0.007508,0.002329
JET_EffectiveNP_R10_Statistical4,0.018803,0.002616,0.000116,0.001281
JET_EffectiveNP_R10_Statistical5,0.014379,-0.002059,0.007618,0.002801
JET_EffectiveNP_R10_Statistical6,0.015485,0.000047,0.005781,0.000571
JET_EffectiveNP_R10_Detector1,0.015485,0.000248,0.006087,0.001757
JET_EffectiveNP_R10_Detector2,0.015485,0.001261,0.003142,0.000286
JET_EffectiveNP_R10_Modelling1,0.018803,0.050679,0.046414,0.032271
JET_EffectiveNP_R10_Modelling2,0.027652,0.013066,0.018341,0.002131
JET_EffectiveNP_R10_Modelling3,0.017697,0.013857,0.028817,0.011584
JET_EffectiveNP_R10_Modelling4,0.014379,0.005647,0.012167,0.001948
JET_EffectiveNP_R10_Mixed1,0.018803,0.018485,0.031513,0.025875
JET_EffectiveNP_R10_Mixed2,0.019909,0.011590,0.023444,0.012957
JET_EffectiveNP_R10_Mixed3,0.015485,0.013931,0.003040,0.001571
JET_EffectiveNP_R10_Mixed4,0.015485,-0.000302,0.005278,0.001948
JET_Flavor_Composition,0.014379,0.001409,0.007420,0.022554
JET_Flavor_Response,0.015485,0.001482,0.011910,0.006824
JET_EtaIntercalibration_Modelling,0.018803,0.025568,0.035720,0.019881
JET_EtaIntercalibration_NonClosure_2018data,0.017697,0.024072,0.006510,0.008300
JET_EtaIntercalibration_R10_TotalStat,0.016591,0.002670,0.008420,0.002944
JET_SingleParticle_HighPt,0.014379,-0.000000,-0.000306,0.000238
JET_LargeR_TopologyUncertainty,0.023228,0.052571,0.070771,0.057110
COMB_SHAPE_JMR,0.015485,0.003535,-0.000809,0.006872
COMB_MCPS_JMR,0.022121,0.003535,0.001924,0.000901
COMB_Stat_JMR,0.016591,0.005252,-0.002632,0.002607
COMB_Smoothing_JMR,0.014379,0.006211,0.010126,0.004313
COMB_OutsideCalib_JMR,0.039819,0.003414,0.005410,0.001882
COMB_MCME_JMR,0.017697,0.000959,0.000102,0.001754
COMB_MCRAD_JMR,0.017697,0.002676,0.001924,0.000048
COMB_MCSmallJET_JMR,0.015485,0.001818,0.000102,0.000048
COMB_MCLargeR_JMR,0.017697,0.002676,0.001924,0.000901
COMB_MCData_JMR,0.039819,0.006110,-0.002632,0.002607
JET_JER_AllOthers,0.012167,0.014441,0.003754,0.002940
JET_JER_DataVsMC_R10_MC16,0.015485,0.002167,0.004855,0.005737
JET_JER_dijet_R10_closure,0.017697,0.008176,0.011125,0.006305
JET_JER_dijet_R10_jesEffNP1,0.015485,0.014441,0.000095,0.002230
JET_JER_dijet_R10_jesEffNP3,0.013273,0.016305,0.002238,0.003460
JET_JER_dijet_R10_jesEffNP4,0.014379,0.011563,0.000510,0.000663
JET_JER_dijet_R10_jesEtaIntMod,0.015485,0.002676,0.000911,0.001706
JET_JER_dijet_R10_jesFlavComp,0.014379,0.008431,0.004053,0.002750
JET_JER_dijet_R10_mcgenerator,0.013273,0.004199,0.003033,0.001563
JET_JER_dijet_R10_selection,0.014379,0.005406,0.004651,0.000381
JET_JER_dijet_R10_stat,0.018803,0.011550,0.001400,0.000663
JET_JMS_FF_AllOthers,0.022121,-0.000859,0.004556,0.000853
JET_JMS_FF_LargerSample,0.024334,-0.003434,0.004556,-0.000000
JET_JMS_FF_PartonShower,0.024334,-0.001717,0.004658,0.000853
JET_JMS_FF_MatrixElement,0.022121,0.000859,0.000911,0.000000
JET_JMS_FF_InterpolationDifference,0.014379,0.000000,-0.000911,-0.000000
JET_JMS_FF_Shape,0.023228,-0.002576,0.001822,0.006019
JET_JMS_FF_Stat,0.021015,0.006010,0.002734,-0.000853
JET_JMS_Rtrk_Stat1,0.014379,-0.000000,-0.000911,0.000000
JET_JMS_Rtrk_Stat2,0.014379,-0.000000,-0.000911,0.000000
JET_JMS_Rtrk_Stat3,0.014379,-0.000000,-0.000911,0.000000
JET_JMS_Rtrk_Stat4,0.014379,-0.000000,-0.000911,0.000000
JET_JMS_Rtrk_Stat5,0.014379,-0.000000,-0.000911,0.000000
JET_JMS_Rtrk_Stat6,0.014379,-0.000000,-0.000911,0.000000
JET_JMS_Rtrk_Generator_InterpolationDifference,0.015485,0.002576,0.001822,0.000853
JET_JMS_Rtrk_InterpolationDifference,0.014379,-0.000000,-0.000000,-0.000000
JET_JMS_Rtrk_Generator,0.015485,0.005051,0.006277,0.006825
Zboson_Scale,0.092593,0.034012,0.037654,-0.026500
Zboson_PDF_Alphas,0.014917,0.037560,0.030870,0.011313
ATLAS_lumi_run2,-0.002086,0.005426,0.003695,0.004507
PRW_DATASF,0.017182,0.002012,0.001436,0.000904
Spurious,0.165911,0.274725,0.200474,0.196212
Wboson_XS,0.023228,0.005151,0.007290,0.008531
tt_PS,0.000000,0.027473,0.019136,0.021327
tt_ME,0.000000,0.015453,0.000911,0.017062
ttbar_XS,0.000000,0.038633,0.025515,0.027299
Wboson_PDF_Alphas,0.000000,0.000859,0.001822,0.000853
Wboson_Scale,0.000000,0.013736,0.021870,0.017915
Zboson_alt_herwig,0.000000,0.001717,0.012757,0.006825
Zboson_alt,0.014160,0.107650,0.107563,0.067587
ZqqJets_XS,0.014379,0.000000,0.000000,0.000000
ttgamma_XS,0.046455,0.000000,0.000000,0.000000
ZqqJets_PDF_Alphas,0.014379,0.000000,0.000000,0.000000
ZqqJets_Scale,0.014379,0.000000,0.000000,0.000000
ZllJets_unc,0.015577,0.000000,0.000000,0.000000
VVg_unc,0.000900,0.000000,0.000000,0.000000
Zttg_unc,0.000000,0.000000,0.000000,0.000000
PH_EFF_ID_Uncertainty,0.015137,0.000000,0.000000,0.000000
PH_EFF_ISO_Uncertainty,0.015445,0.000000,0.000000,0.000000
